# 3ds Max Wavefront OBJ Exporter v0.97b - (c)2007 guruware
# File Created: 02.02.2020 11:48:55

mtllib skaly_wielkie_lp_1.mtl

#
# object Object001
#

v  0.2235 0.2222 0.8252
v  0.6608 0.3478 0.8237
v  0.2175 0.5787 0.8235
v  -0.3853 -0.0280 -1.1651
v  0.5913 -0.0279 -1.0250
v  1.0819 -0.0280 0.5116
v  -0.4200 0.6709 -0.9249
v  0.0632 0.6747 -0.9151
v  -0.3898 0.4172 -0.9903
v  -0.8321 -0.0280 -0.6706
v  -0.3479 -0.0280 0.8072
v  -0.8976 -0.0279 0.3774
v  -0.3805 0.9372 0.1017
v  -0.4700 0.9133 0.1294
v  -0.2431 0.9440 0.1288
v  -0.8565 0.4880 -0.5783
v  -0.9329 0.4553 0.2685
v  -0.8635 0.7122 -0.3310
v  -0.8437 0.6246 0.4128
v  -0.6934 0.5557 0.6050
v  -0.6379 0.7261 0.6236
v  -0.4986 -0.0046 0.8198
v  -0.3699 0.4821 0.8297
v  -0.4920 0.4494 0.8141
v  -0.0529 0.4178 -0.9373
v  1.2249 0.0846 0.4242
v  1.1131 0.1113 0.4715
v  1.1990 -0.0251 0.4888
v  0.9597 0.2194 -0.5225
v  0.8276 0.3572 -0.6237
v  0.9476 0.5808 -0.5495
v  0.0258 0.7026 0.2926
v  -0.4283 0.7358 0.6581
v  0.3868 0.6744 0.6920
v  0.5350 0.4419 -0.8329
v  0.0146 0.5065 -0.9268
v  0.1696 1.0233 0.0750
v  0.4220 1.1855 0.1432
v  0.2072 1.4129 0.0574
v  -0.0446 1.0285 0.0076
v  0.0309 1.4580 -0.2144
v  -0.0704 0.9878 -0.2710
v  -0.1719 1.1349 -0.0094
v  -0.1690 0.9815 -0.0020
v  -0.1251 0.9885 -0.2469
v  -0.8173 0.2278 -0.7127
v  -0.5409 0.7049 -0.8854
v  -0.4297 0.1480 -0.9848
v  -0.5484 -0.0281 -0.8462
v  0.1650 -0.0269 0.7896
v  0.5679 1.4509 0.0977
v  0.5598 1.0884 0.1072
v  0.6534 1.4120 0.0009
v  0.3644 1.5383 -0.4213
v  0.2878 1.4376 -0.3936
v  0.1890 1.4306 -0.3061
v  0.4469 1.4803 -0.4376
v  0.6224 1.1098 -0.4297
v  0.3525 1.0944 -0.4821
v  0.6907 1.4973 -0.2984
v  0.6851 1.0981 -0.0790
v  0.6633 1.0860 -0.3794
v  0.1365 0.9907 -0.6750
v  0.3272 1.0164 -0.5329
v  0.6030 1.0533 -0.4735
v  -0.1815 0.9506 -0.6834
v  -0.1025 0.9626 -0.4183
v  0.7504 0.6139 0.7166
v  0.5343 0.5852 0.7787
v  0.4974 0.7411 0.4488
v  0.7259 1.0199 0.2261
v  0.5994 1.0168 0.3443
v  0.0967 -0.0279 1.2397
v  0.1931 0.2085 0.8781
v  0.2076 0.1848 1.0375
v  0.3078 -0.0064 1.0202
v  0.7441 0.7253 0.2000
v  0.7460 0.7101 -0.4075
v  0.7792 1.0340 -0.0759
v  0.7843 0.7784 0.0854
v  -0.3024 0.9646 -0.5283
v  -0.2674 1.1597 -0.4521
v  -0.2111 0.9805 -0.5113
v  -0.8092 0.6985 -0.5395
v  -0.6970 0.6852 -0.7747
v  0.7651 0.6513 0.2762
v  0.4152 0.6753 0.5775
v  0.9330 0.6324 0.2532
v  1.0162 0.4283 -0.2079
v  1.0202 0.5314 -0.4741
v  1.0153 0.4351 0.2826
v  -0.3444 1.0256 0.0785
v  -0.2481 0.9708 0.0769
v  -0.2401 1.1107 0.0701
v  -0.3983 1.1351 -0.3625
v  -0.4398 0.9256 -0.4755
v  -0.4733 0.9720 -0.1934
v  1.2230 -0.0277 0.2504
v  1.2339 0.0861 0.1597
v  1.1857 0.1526 0.3060
v  1.2918 0.0805 0.3147
v  0.1001 1.5366 -0.0747
v  0.0119 1.2529 0.0156
v  0.4798 1.5859 -0.3405
v  0.3857 1.5703 0.0355
v  0.4810 1.0373 0.2003
v  0.1480 0.9937 0.0985
v  0.3815 1.0191 0.3077
v  0.3669 0.7210 0.4592
v  0.3172 0.9171 0.3497
v  0.3064 0.7519 0.3662
v  1.0943 -0.0273 -0.0340
v  0.9017 -0.0265 -0.8139
v  0.8561 0.2091 -0.8608
v  0.8277 0.2334 -0.6572
v  0.0941 0.9577 0.1971
v  0.2071 0.7500 0.2797
v  0.2234 0.9574 0.2676
v  -0.1045 0.9142 0.3238
v  -0.0943 0.7805 0.3094
v  0.0049 0.9370 0.2179
v  0.8726 -0.0031 -0.8556
v  0.6022 -0.0013 -1.0403
v  0.6130 0.2194 -1.0359
v  -0.3054 0.0002 -1.1999
v  0.0660 0.1772 -1.1350
v  -0.9094 0.6812 0.3029
v  -0.8061 0.7626 -0.4185
v  -0.7071 0.7603 -0.0580
v  -0.6094 0.7512 -0.7844
v  0.9366 0.6258 -0.4954
v  0.8459 0.6459 0.0921
v  0.7855 0.6511 -0.5114
v  -0.5862 0.7499 0.3773
v  -0.7884 0.7630 0.2834
v  0.5682 0.4048 -0.8629
v  0.6290 0.3546 -1.0074
v  0.2323 0.4524 -0.9362
v  0.7321 1.0322 -0.4730
v  0.5484 1.0267 -0.5709
v  0.7082 0.2978 0.7921
v  0.7779 -0.0108 0.6731
v  0.8237 0.3323 0.6040
v  0.5348 -0.0225 0.8245
v  0.1128 0.2353 1.1262
v  -0.0318 0.1966 1.2019
v  0.1959 0.1739 1.2089
v  -0.0978 0.4925 0.8312
v  0.1994 0.4248 0.8284
v  0.8809 -0.0264 -0.5868
v  1.0019 -0.0263 -0.3006
v  0.9990 0.2283 -0.4707
v  0.3289 -0.0170 0.8705
v  0.7004 -0.0279 0.7947
v  -0.0950 0.9636 -0.3045
v  0.1245 1.0091 -0.3259
v  -0.1846 0.7158 -0.8866
v  -0.4805 0.7417 -0.7483
v  -0.2694 0.7381 -0.7681
v  -0.6187 0.7569 -0.6122
v  0.1971 0.6925 0.3293
v  0.7393 0.6470 0.6681
v  -0.5491 -0.0160 -0.9005
v  -0.8612 -0.0041 -0.6800
v  -0.0055 0.1885 -1.1264
v  -0.3027 0.1393 -1.1917
v  -0.3103 0.1827 -1.0330
v  -0.1262 1.1591 -0.2490
v  -0.4203 1.1621 -0.0808
v  0.6670 0.6476 -0.7224
v  0.3497 0.6723 -0.8350
v  0.0106 0.7096 -0.8568
v  0.1491 0.6995 -0.7523
v  -0.3345 0.1778 0.9671
v  -0.2414 -0.0037 1.1189
v  -0.2382 0.2348 1.0706
v  0.8170 0.6115 0.6492
v  1.0207 0.5166 0.2186
v  0.9982 0.5628 0.3307
v  -0.2367 0.9084 -0.7161
v  -0.0293 0.9461 -0.7754
v  -0.0737 0.7885 -0.7965
v  0.1957 0.7583 -0.6989
v  0.0452 0.7665 -0.7768
v  0.1803 0.9386 -0.7036
v  1.0416 0.3939 -0.1380
v  1.1940 0.3287 0.1749
v  1.1925 0.3310 -0.1153
v  1.0008 0.2211 -0.2621
v  -0.1631 0.7248 0.4060
v  -0.3580 0.7343 0.4733
v  -0.7067 0.7573 0.4904
v  0.6116 1.5558 -0.3939
v  0.6464 1.4998 -0.1608
v  0.6695 1.5034 -0.3695
v  -0.4699 0.8979 0.2613
v  -0.5981 0.8814 -0.0754
v  -0.6597 0.7896 -0.0456
v  -0.5551 0.8901 -0.2764
v  -0.5719 0.8029 -0.5513
v  -0.6430 0.7718 -0.2319
v  0.7666 -0.0281 0.6275
v  1.0049 -0.0176 0.6289
v  0.8903 0.2725 0.5828
v  0.8341 -0.0113 0.6421
v  0.4824 0.6246 -0.8396
v  0.7743 0.4263 -0.6645
v  0.6059 0.6050 -0.7901
v  -0.5229 0.8109 0.2787
v  -0.2324 0.7834 0.3957
v  0.0529 0.9781 0.1396
v  -0.0234 0.9719 0.0856
v  -0.1596 0.9528 0.3174
v  -0.5855 -0.0253 0.7643
v  -0.9585 0.2664 0.4459
v  -0.8461 0.5270 0.5632
v  -0.9109 0.5339 0.3955
v  -0.9437 0.2301 0.2530
v  -0.8693 0.2289 -0.5983
v  0.5279 1.2153 0.1305
v  0.4724 1.0652 0.1731
v  0.7422 1.0649 0.1486
v  0.5559 1.0427 0.3283
v  -0.3806 0.9294 -0.5264
v  -0.3573 1.1541 -0.4284
v  -0.1417 1.1907 -0.3594
v  -0.3661 1.1946 -0.0876
v  1.0793 0.2175 0.5077
v  1.0426 0.3907 0.2940
v  -0.4004 0.7103 0.7319
v  -0.3745 0.6486 0.8017
v  0.1928 0.6782 0.7468
v  -0.1458 0.2441 -0.9501
v  0.2866 0.4124 -1.0661
v  0.0713 0.4174 -1.1363
v  -0.1319 0.9876 -0.4306
v  -0.2623 0.4788 0.9555
v  -0.1560 0.4127 1.0232
v  -0.0472 0.4132 0.9309
v  -0.3121 0.4406 0.9527
v  -0.0561 0.2487 -0.9630
v  -0.1153 0.2069 -0.9759
v  0.7106 1.0646 -0.0303
v  0.6863 1.0581 -0.4165
v  -0.1702 -0.0274 1.2382
v  -0.1449 -0.0008 1.2695
v  0.0384 0.2449 -1.1165
v  0.8849 0.4198 0.5167
v  1.1737 0.3217 0.3337
v  -0.1743 1.2095 -0.1058
v  -0.3861 1.1467 0.0308
v  0.2751 0.0346 1.1994
v  0.2524 0.0039 1.2375
v  0.1498 0.0017 1.2605
v  -0.7399 0.2384 0.7113
v  -0.6947 0.4658 0.7438
v  0.4273 1.4972 0.1112
v  -0.4756 0.9216 0.0113
v  -0.4426 0.9729 -0.0012
v  -0.4840 0.9074 -0.6362
v  -0.4317 0.7641 -0.7223
v  -0.3718 0.9064 -0.7053
v  -0.2622 0.8124 -0.7244
v  0.7857 0.3792 -0.6972
v  -0.1971 0.9503 -0.5476
v  -0.3811 0.9242 0.3263
v  -0.2377 0.9148 0.3873
v  -0.3731 0.8993 0.3698
v  -0.3334 0.8052 0.4016
v  0.3941 1.5698 -0.3777
v  0.2670 1.5563 -0.2265
v  0.5632 0.6653 -0.6655
v  0.7114 0.7121 -0.4942
v  0.6249 0.7452 -0.5564
v  -0.4273 0.8059 0.3749
v  0.0419 1.4662 -0.0965
v  -0.0992 0.9599 -0.0202
v  0.9955 -0.0221 -0.4907
v  -0.8393 0.7353 0.3754
v  1.1859 0.2332 -0.1266
v  1.0459 0.2318 -0.2004
v  1.0377 0.3581 -0.1967
v  1.1888 0.1302 0.0805
v  -0.8150 0.3964 -0.7083
v  0.2875 0.6373 0.7810
v  -0.0669 0.6246 0.8105
v  1.1748 -0.0100 0.0006
v  1.2111 0.0172 0.0241
v  1.1834 0.0176 -0.2099
v  -0.9061 0.5450 0.3398
v  -0.9473 0.0112 0.3387
v  -0.9589 0.0213 0.4477
v  0.0479 0.2898 0.9196
v  0.1355 0.2567 0.8971
v  0.0826 0.3768 0.8875
v  1.2865 -0.0274 0.3259
v  0.4691 0.8847 0.4607
v  -0.5054 0.9224 -0.2016
v  -0.3781 0.2085 -0.9885
v  -0.2819 0.5453 0.8358
v  -0.0036 1.0512 0.0610
v  0.9592 0.6168 0.3597
v  0.0836 0.7753 0.2142
v  -0.3380 -0.0165 0.9704
v  -0.3695 0.0029 0.8591
v  0.5995 0.9907 -0.5708
v  0.4245 0.9801 -0.6322
v  0.0791 1.5236 -0.2272
v  -0.0172 0.9981 -0.3087
v  0.0663 1.4749 -0.2647
v  0.4940 0.7596 -0.6167
v  -0.6914 0.1870 0.7481
v  -0.5915 0.4743 0.7304
v  -0.6554 -0.0244 0.7693
v  1.1551 0.1569 0.3904
v  -0.3314 0.4507 0.8661
v  -0.2159 0.3834 1.0303
v  -0.1959 1.1626 -0.4341
v  0.5211 0.6920 0.4576
v  0.7901 0.6802 0.1733
v  0.7995 0.6830 -0.0316
v  0.1395 0.9965 -0.3635
v  1.0394 0.0873 -0.2563
v  0.0156 0.3578 0.9325
v  0.0386 0.3251 1.0992
v  0.7735 1.0380 0.1508
v  1.1796 -0.0267 -0.2007
v  -0.1454 0.3877 1.1292
v  0.3407 1.5360 0.0607
v  -0.4126 -0.0138 0.8261
v  -0.5571 0.7774 -0.6441
v  0.0292 0.7221 0.2290
v  0.3208 1.0445 -0.4951
v  0.2757 1.1644 -0.4367
v  -0.9250 -0.0171 0.2219
v  -0.2099 0.0044 1.2445
v  -0.1872 0.3676 1.1100
v  0.2239 1.5192 -0.2779
v  0.5516 0.6949 -0.6246
v  0.0634 0.9321 -0.7657
v  -0.5432 0.7658 0.3429
v  0.8210 0.3368 -0.8353
v  0.4637 0.3670 -1.0634
v  0.8340 0.2718 -0.8430
v  0.4028 0.8689 0.4535
v  0.0204 0.4691 -0.9698
v  0.4213 0.7032 0.4934
v  0.6911 1.4321 -0.0978
v  -0.2697 0.7352 0.4460
v  -0.9349 -0.0220 0.4441
v  -0.7155 0.0025 0.7381
v  0.0087 0.7737 0.2140
v  0.6458 1.0891 0.0093
v  -0.2572 0.4938 0.8780
v  -0.4871 0.7305 -0.9009
v  -0.1405 0.7389 -0.8236
v  0.2185 0.1855 1.1664
# 357 vertices

vn 0.4279 0.2158 0.8777
vn 0.3212 0.0950 0.9422
vn 0.0490 0.2961 0.9539
vn -0.5545 -0.5661 -0.6100
vn 0.1831 -0.8583 -0.4793
vn 0.3857 -0.7800 0.4927
vn -0.0286 0.3226 -0.9461
vn 0.1481 0.5341 -0.8323
vn -0.1641 0.0843 -0.9828
vn -0.3434 -0.9138 -0.2167
vn -0.0978 -0.9881 0.1184
vn -0.2509 -0.9672 -0.0387
vn -0.2851 0.7959 0.5341
vn -0.2987 0.9495 0.0957
vn -0.0680 0.9813 0.1802
vn -0.9480 0.1573 -0.2768
vn -0.9953 0.0732 0.0635
vn -0.8948 0.4357 -0.0969
vn -0.7677 0.3701 0.5232
vn -0.5419 0.5235 0.6575
vn -0.4653 0.6526 0.5980
vn -0.2761 -0.4136 0.8676
vn -0.3011 0.1794 0.9366
vn -0.4010 0.1221 0.9079
vn -0.3001 0.1933 -0.9341
vn 0.6664 0.4574 0.5887
vn 0.6842 0.2317 0.6915
vn 0.4743 -0.5144 0.7144
vn 0.7022 -0.0073 -0.7119
vn 0.7982 0.1258 -0.5891
vn 0.6688 0.3671 -0.6465
vn 0.1265 0.9733 0.1914
vn -0.0001 0.9793 0.2022
vn 0.0974 0.9739 0.2052
vn 0.3853 0.4467 -0.8075
vn 0.0252 0.3143 -0.9490
vn -0.1879 0.4129 0.8912
vn -0.1456 0.1343 0.9802
vn -0.3755 0.2823 0.8828
vn -0.8769 0.3607 0.3179
vn -0.9055 0.3809 -0.1869
vn -0.7305 0.6300 -0.2636
vn 0.7829 0.3778 0.4943
vn 0.6980 0.5601 0.4461
vn 0.9320 0.3464 0.1066
vn -0.7548 0.0389 -0.6548
vn -0.5006 0.3389 -0.7966
vn -0.6177 0.2599 -0.7422
vn -0.0770 -0.9931 -0.0883
vn 0.0161 -0.9997 0.0174
vn 0.5148 0.4439 0.7334
vn 0.6689 0.1496 0.7282
vn 0.8322 0.2572 0.4912
vn -0.3178 0.5646 -0.7617
vn -0.6024 0.2032 -0.7719
vn -0.4542 0.2577 -0.8528
vn 0.0706 0.1953 -0.9782
vn 0.4952 0.3117 -0.8109
vn -0.0555 0.2364 -0.9701
vn 0.8816 0.4708 -0.0326
vn 0.9327 0.3394 0.1222
vn 0.8612 0.4531 -0.2303
vn 0.0439 0.9170 -0.3965
vn -0.1721 0.9570 -0.2335
vn 0.1765 0.8034 -0.5688
vn -0.1833 0.9416 -0.2825
vn 0.2339 0.9659 -0.1108
vn 0.4481 0.5146 0.7310
vn 0.1562 0.4408 0.8839
vn 0.5632 0.1832 0.8058
vn 0.6927 0.3593 0.6254
vn 0.4653 0.4901 0.7371
vn 0.0674 -0.9014 0.4276
vn 0.7483 0.5830 0.3164
vn 0.7275 0.6861 0.0038
vn 0.8781 -0.4718 0.0802
vn 0.7781 0.2200 0.5883
vn 0.9104 0.3746 -0.1757
vn 0.8424 0.5357 -0.0586
vn 0.9893 0.0825 0.1206
vn -0.1035 0.3623 -0.9263
vn -0.0423 0.7344 -0.6774
vn 0.3341 0.5868 -0.7376
vn -0.8148 0.4676 -0.3427
vn -0.6867 0.4090 -0.6010
vn 0.2719 0.9444 0.1849
vn 0.0669 0.9899 0.1253
vn 0.3265 0.9451 0.0150
vn 0.9934 0.0669 -0.0929
vn 0.9159 0.2557 -0.3095
vn 0.9290 0.2831 0.2384
vn -0.2881 0.2208 0.9318
vn 0.2801 0.5765 0.7676
vn 0.3192 0.4244 0.8473
vn -0.8000 0.5650 -0.2018
vn -0.5576 0.7920 -0.2487
vn -0.9125 0.4085 -0.0228
vn 0.1278 -0.9879 -0.0880
vn 0.8286 0.5114 -0.2276
vn 0.8744 0.4736 0.1053
vn 0.9102 0.4067 0.0783
vn -0.5069 0.7844 0.3574
vn -0.7417 0.2831 0.6081
vn 0.0631 0.9882 -0.1392
vn 0.0482 0.9178 0.3940
vn -0.0728 0.9497 0.3046
vn -0.1333 0.8698 0.4752
vn -0.2631 0.8600 0.4372
vn -0.5482 0.5194 0.6555
vn -0.5813 0.3639 0.7278
vn -0.6797 0.3574 0.6405
vn 0.0911 -0.9958 -0.0031
vn 0.7863 -0.5851 -0.1985
vn 0.8661 0.2504 -0.4325
vn 0.9875 0.1160 -0.1068
vn -0.2803 0.5556 0.7828
vn -0.4956 0.3879 0.7771
vn -0.4812 0.3566 0.8008
vn 0.5415 0.3295 0.7734
vn 0.6318 0.1987 0.7493
vn 0.4236 0.4193 0.8030
vn 0.6555 -0.2548 -0.7110
vn 0.3639 -0.2866 -0.8863
vn 0.4176 0.0625 -0.9065
vn -0.0723 -0.3915 -0.9174
vn 0.0753 0.0829 -0.9937
vn -0.8831 0.4221 0.2048
vn -0.4589 0.8771 -0.1417
vn -0.2088 0.9779 0.0052
vn -0.2885 0.8972 -0.3342
vn 0.5084 0.8389 -0.1944
vn 0.3665 0.9300 0.0279
vn 0.3407 0.9234 -0.1766
vn -0.0241 0.9963 0.0822
vn -0.2098 0.9774 0.0271
vn 0.2979 0.8809 -0.3678
vn 0.4561 0.5927 -0.6638
vn 0.1712 0.9119 -0.3731
vn 0.7148 0.5282 -0.4583
vn 0.1756 0.7656 -0.6189
vn 0.7124 0.0065 0.7018
vn 0.6442 -0.5337 0.5478
vn 0.7403 0.0795 0.6675
vn 0.0768 -0.6397 0.7648
vn 0.4162 0.8334 0.3637
vn 0.0770 0.4327 0.8982
vn 0.3593 0.5781 0.7327
vn 0.1231 0.4232 0.8976
vn 0.2199 0.1166 0.9685
vn 0.5448 -0.7939 -0.2700
vn 0.5088 -0.8111 -0.2885
vn 0.9475 -0.0289 -0.3184
vn 0.4294 -0.6896 0.5831
vn 0.4380 -0.6423 0.6289
vn 0.1362 0.9842 -0.1133
vn -0.4206 0.5012 -0.7563
vn 0.0065 0.8331 -0.5531
vn -0.0266 0.9730 -0.2294
vn -0.1290 0.8136 -0.5669
vn -0.3356 0.9310 -0.1435
vn -0.2360 0.8887 0.3932
vn 0.2337 0.9255 0.2981
vn -0.6011 -0.5506 -0.5793
vn -0.8080 -0.3840 -0.4469
vn -0.1979 0.7374 -0.6458
vn -0.3009 0.5561 -0.7747
vn -0.1711 0.9014 -0.3977
vn 0.9567 0.2845 0.0611
vn -0.7946 0.5970 0.1108
vn 0.3716 0.7927 -0.4833
vn 0.1723 0.8830 -0.4367
vn 0.1694 0.8409 -0.5141
vn 0.3087 0.7996 -0.5152
vn -0.9052 0.0905 0.4153
vn -0.8838 0.0610 0.4638
vn -0.8225 0.1743 0.5413
vn 0.7340 0.4616 0.4982
vn 0.9836 0.1759 0.0390
vn 0.9244 0.2787 0.2603
vn -0.1894 0.4497 -0.8729
vn -0.0783 0.6268 -0.7752
vn -0.0784 0.4185 -0.9048
vn 0.3468 0.2529 -0.9032
vn 0.3934 0.3613 -0.8454
vn 0.3123 0.3173 -0.8954
vn 0.6885 0.7075 -0.1592
vn 0.8468 0.5306 0.0369
vn 0.7944 0.4625 -0.3937
vn 0.9423 0.0541 -0.3303
vn 0.3394 0.8274 0.4474
vn 0.0488 0.9689 0.2425
vn -0.2318 0.9433 0.2377
vn 0.4182 0.7071 -0.5703
vn 0.5480 0.8061 0.2233
vn 0.7831 0.3240 -0.5308
vn -0.5894 0.7400 0.3240
vn -0.6562 0.7534 0.0412
vn -0.6802 0.7278 0.0874
vn -0.6482 0.7533 -0.1110
vn -0.7303 0.6640 -0.1602
vn -0.6055 0.7891 -0.1036
vn 0.0881 -0.9895 0.1148
vn 0.3980 -0.4996 0.7694
vn 0.4150 0.2661 0.8700
vn 0.2058 -0.3859 0.8993
vn 0.2864 0.4253 -0.8586
vn 0.6395 0.1942 -0.7438
vn 0.4798 0.2811 -0.8312
vn -0.6731 0.6334 0.3818
vn 0.3215 0.3664 0.8732
vn -0.1110 0.9724 0.2052
vn -0.3243 0.8783 0.3515
vn 0.1292 0.9026 0.4106
vn -0.1725 -0.7572 0.6300
vn -0.9749 0.0732 0.2104
vn -0.6702 0.4831 0.5635
vn -0.9167 0.3701 0.1505
vn -0.9994 0.0282 -0.0197
vn -0.9715 0.0465 -0.2323
vn 0.3778 0.0783 0.9226
vn 0.0253 0.4792 0.8773
vn 0.3427 0.9197 0.1919
vn 0.0086 0.8913 0.4534
vn -0.2990 0.8442 -0.4449
vn -0.4631 0.7292 -0.5039
vn 0.6117 0.7362 -0.2897
vn -0.2815 0.9533 0.1095
vn 0.6671 0.2831 0.6891
vn 0.5959 0.7860 0.1646
vn -0.0936 0.8362 0.5404
vn -0.1767 0.4902 0.8535
vn 0.0620 0.8797 0.4715
vn 0.0232 0.2986 -0.9541
vn 0.1855 0.8962 -0.4030
vn -0.2788 0.5360 -0.7969
vn 0.7849 0.3952 -0.4773
vn -0.1903 0.8538 0.4847
vn 0.0689 0.9011 0.4282
vn 0.3765 0.8862 0.2699
vn -0.7505 0.4286 0.5030
vn -0.5277 0.4070 -0.7455
vn -0.1640 0.8048 -0.5705
vn 0.4252 0.9012 0.0841
vn 0.4676 0.8516 -0.2369
vn -0.2569 -0.8778 0.4044
vn -0.1469 -0.2271 0.9627
vn -0.6281 0.2075 -0.7499
vn 0.7721 0.1948 0.6049
vn 0.7988 0.5125 0.3152
vn 0.4872 0.8445 0.2225
vn -0.4923 0.5941 0.6361
vn 0.9198 0.0964 0.3804
vn 0.5646 -0.4454 0.6949
vn 0.1369 -0.2614 0.9555
vn -0.6963 0.0187 0.7175
vn -0.2928 0.4056 0.8659
vn 0.0227 0.4716 0.8815
vn -0.5281 0.8281 0.1880
vn -0.8258 0.3998 0.3977
vn -0.5243 0.7391 -0.4229
vn -0.2118 0.6135 -0.7608
vn -0.2372 0.6002 -0.7639
vn -0.1938 0.3053 -0.9323
vn 0.5907 0.7374 -0.3275
vn 0.0011 0.9711 -0.2385
vn -0.3170 0.8952 0.3133
vn 0.1018 0.5461 0.8315
vn -0.3536 0.5588 0.7502
vn -0.1357 0.3036 0.9431
vn -0.1823 0.9203 -0.3462
vn -0.2259 0.9586 -0.1731
vn 0.1855 0.9369 -0.2964
vn 0.6970 0.4316 -0.5726
vn 0.5522 0.1080 -0.8267
vn -0.4160 0.5250 0.7425
vn -0.8603 0.4319 0.2709
vn -0.2764 0.9520 0.1318
vn 0.7178 -0.6021 -0.3497
vn -0.6382 0.6812 0.3587
vn 0.8691 0.0810 -0.4880
vn 0.6234 0.1620 -0.7649
vn 0.7183 0.2670 -0.6425
vn 0.9732 0.2094 -0.0947
vn -0.7886 0.0911 -0.6081
vn 0.1049 0.6546 0.7486
vn 0.0236 0.4546 0.8904
vn 0.4608 -0.8842 -0.0760
vn 0.9350 -0.2922 -0.2009
vn 0.8127 0.0185 -0.5824
vn -0.9491 0.1980 0.2451
vn -0.9124 -0.4046 -0.0620
vn -0.9324 -0.2256 0.2822
vn 0.6988 0.5401 0.4689
vn 0.5732 0.5784 0.5805
vn 0.3224 0.4291 0.8438
vn 0.7514 -0.6524 0.0991
vn 0.1799 0.3675 0.9125
vn -0.6398 0.7672 -0.0449
vn -0.1126 0.2130 -0.9706
vn -0.0939 0.3678 0.9252
vn -0.5074 0.2707 0.8181
vn 0.6416 0.7391 0.2052
vn -0.2383 0.2738 0.9318
vn -0.7428 -0.5855 0.3248
vn -0.7818 -0.4065 0.4728
vn 0.4396 0.2514 -0.8623
vn 0.2335 0.3423 -0.9101
vn -0.5045 0.7983 -0.3289
vn -0.3077 0.2350 -0.9220
vn -0.5385 0.4031 -0.7400
vn 0.3237 0.1908 -0.9267
vn -0.3139 0.0456 0.9484
vn -0.4105 0.2692 0.8712
vn -0.1725 -0.6221 0.7637
vn 0.7877 0.3959 0.4719
vn -0.7116 0.3605 0.6031
vn -0.5046 0.5238 0.6863
vn 0.3866 0.6193 -0.6834
vn 0.5182 0.5850 0.6239
vn 0.7806 0.5176 0.3504
vn 0.8507 0.5223 -0.0582
vn -0.4579 0.8160 -0.3528
vn 0.5094 0.2129 -0.8338
vn 0.6929 0.5550 0.4603
vn 0.5393 0.7162 0.4430
vn 0.8646 0.4113 0.2887
vn 0.6654 -0.6716 -0.3259
vn -0.1083 0.7716 0.6268
vn -0.3029 0.6012 0.7394
vn -0.2098 -0.6150 0.7601
vn -0.5690 0.6221 -0.5377
vn 0.1549 0.6869 0.7100
vn -0.3279 0.5258 -0.7849
vn -0.5517 0.1689 -0.8168
vn -0.6494 -0.7595 -0.0391
vn -0.7140 -0.2367 0.6589
vn -0.6855 0.5186 0.5110
vn -0.3818 0.7149 -0.5857
vn 0.3316 0.6513 -0.6826
vn 0.2907 0.3837 -0.8765
vn -0.3267 0.8877 0.3246
vn 0.7288 0.5720 -0.3764
vn 0.2494 0.4848 -0.8383
vn 0.8745 0.2903 -0.3885
vn -0.4200 0.3815 0.8235
vn -0.3085 0.7983 -0.5173
vn 0.1179 0.7366 0.6660
vn 0.9082 0.3439 0.2387
vn 0.2653 0.1028 0.9587
vn -0.5824 -0.7926 0.1806
vn -0.6293 -0.3152 0.7103
vn 0.3897 0.2083 0.8971
vn 0.7396 0.4023 0.5396
vn -0.0794 0.8316 0.5496
vn -0.1571 0.7154 -0.6809
vn -0.1099 0.8363 -0.5372
vn 0.6748 0.7006 0.2317
# 357 vertex normals

vt 0.5076 0.9080 0.0000
vt 0.5799 0.9318 0.0000
vt 0.5036 0.9678 0.0000
vt 0.3877 0.2576 0.0000
vt 0.2652 0.3677 0.0000
vt 0.0148 0.2677 0.0000
vt 0.7444 0.0203 0.0000
vt 0.8262 0.0197 0.0000
vt 0.7504 0.0641 0.0000
vt 0.3730 0.1455 0.0000
vt 0.1323 0.0456 0.0000
vt 0.2475 0.0221 0.0000
vt 0.4254 0.1781 0.0000
vt 0.4101 0.1734 0.0000
vt 0.4486 0.1736 0.0000
vt 0.0886 0.6072 0.0000
vt 0.0878 0.4643 0.0000
vt 0.1280 0.5670 0.0000
vt 0.1196 0.4391 0.0000
vt 0.1093 0.4002 0.0000
vt 0.1387 0.3918 0.0000
vt 0.3841 0.8654 0.0000
vt 0.4038 0.9475 0.0000
vt 0.3839 0.9413 0.0000
vt 0.8071 0.0636 0.0000
vt 0.7264 0.8226 0.0000
vt 0.7281 0.8019 0.0000
vt 0.7481 0.8204 0.0000
vt 0.9874 0.0985 0.0000
vt 0.9614 0.0736 0.0000
vt 0.9885 0.0375 0.0000
vt 0.1712 0.7856 0.0000
vt 0.0951 0.7250 0.0000
vt 0.2322 0.7192 0.0000
vt 0.9059 0.0589 0.0000
vt 0.8177 0.0482 0.0000
vt 0.8186 0.7205 0.0000
vt 0.8628 0.7477 0.0000
vt 0.8252 0.7863 0.0000
vt 0.5331 0.4757 0.0000
vt 0.4601 0.4385 0.0000
vt 0.5406 0.4283 0.0000
vt 0.4254 0.5590 0.0000
vt 0.4259 0.5332 0.0000
vt 0.4675 0.5369 0.0000
vt 0.6666 0.0959 0.0000
vt 0.7220 0.0149 0.0000
vt 0.7454 0.1097 0.0000
vt 0.3657 0.2012 0.0000
vt 0.0784 0.1165 0.0000
vt 0.3004 0.6098 0.0000
vt 0.2985 0.5489 0.0000
vt 0.3220 0.6034 0.0000
vt 0.7581 0.6380 0.0000
vt 0.7413 0.6242 0.0000
vt 0.7416 0.6020 0.0000
vt 0.9101 0.6688 0.0000
vt 0.8463 0.6953 0.0000
vt 0.8454 0.6490 0.0000
vt 0.3730 0.6181 0.0000
vt 0.3361 0.5509 0.0000
vt 0.3866 0.5487 0.0000
vt 0.5134 0.3096 0.0000
vt 0.5456 0.2859 0.0000
vt 0.5923 0.2761 0.0000
vt 0.4593 0.3117 0.0000
vt 0.4727 0.2674 0.0000
vt 0.5942 0.9801 0.0000
vt 0.5571 0.9717 0.0000
vt 0.6445 0.7315 0.0000
vt 0.5871 0.7737 0.0000
vt 0.5937 0.7455 0.0000
vt 0.0286 0.0576 0.0000
vt 0.6858 0.6075 0.0000
vt 0.6800 0.6341 0.0000
vt 0.6439 0.6296 0.0000
vt 0.3621 0.7598 0.0000
vt 0.3085 0.7130 0.0000
vt 0.3671 0.7104 0.0000
vt 0.4709 0.7074 0.0000
vt 0.4150 0.7617 0.0000
vt 0.3877 0.7187 0.0000
vt 0.6981 0.8841 0.0000
vt 0.6631 0.8780 0.0000
vt 0.6949 0.8687 0.0000
vt 0.1254 0.6034 0.0000
vt 0.1241 0.6475 0.0000
vt 0.2966 0.7895 0.0000
vt 0.2378 0.7385 0.0000
vt 0.3246 0.7933 0.0000
vt 0.8163 0.3957 0.0000
vt 0.7720 0.3784 0.0000
vt 0.8991 0.3942 0.0000
vt 0.6771 0.7849 0.0000
vt 0.6594 0.7899 0.0000
vt 0.6639 0.7666 0.0000
vt 0.6715 0.4903 0.0000
vt 0.6357 0.5096 0.0000
vt 0.6418 0.4616 0.0000
vt 0.0326 0.3150 0.0000
vt 0.6915 0.6418 0.0000
vt 0.7197 0.6421 0.0000
vt 0.7109 0.6618 0.0000
vt 0.8011 0.8120 0.0000
vt 0.7908 0.7606 0.0000
vt 0.4055 0.4569 0.0000
vt 0.4400 0.5271 0.0000
vt 0.3888 0.5195 0.0000
vt 0.5721 0.1615 0.0000
vt 0.5157 0.1781 0.0000
vt 0.5550 0.1435 0.0000
vt 0.7778 0.6939 0.0000
vt 0.7463 0.6716 0.0000
vt 0.7740 0.6750 0.0000
vt 0.0830 0.3303 0.0000
vt 0.8180 0.8536 0.0000
vt 0.8588 0.8486 0.0000
vt 0.8611 0.8832 0.0000
vt 0.6348 0.2419 0.0000
vt 0.6722 0.2627 0.0000
vt 0.6367 0.2661 0.0000
vt 0.6428 0.2062 0.0000
vt 0.6656 0.2071 0.0000
vt 0.6393 0.2295 0.0000
vt 0.8256 0.9861 0.0000
vt 0.7709 0.9859 0.0000
vt 0.7725 0.9487 0.0000
vt 0.6163 0.9857 0.0000
vt 0.6795 0.9559 0.0000
vt 0.1261 0.4601 0.0000
vt 0.0299 0.9061 0.0000
vt 0.0471 0.8467 0.0000
vt 0.0628 0.9684 0.0000
vt 0.3253 0.9188 0.0000
vt 0.3102 0.8209 0.0000
vt 0.2997 0.9225 0.0000
vt 0.0674 0.7732 0.0000
vt 0.0342 0.7890 0.0000
vt 0.2831 0.5171 0.0000
vt 0.2851 0.5448 0.0000
vt 0.2255 0.5082 0.0000
vt 0.4821 0.7614 0.0000
vt 0.5835 0.2930 0.0000
vt 0.9945 0.4184 0.0000
vt 0.9685 0.4691 0.0000
vt 0.9584 0.4105 0.0000
vt 0.5613 0.8688 0.0000
vt 0.6694 0.7340 0.0000
vt 0.6635 0.7065 0.0000
vt 0.6915 0.7329 0.0000
vt 0.4509 0.9517 0.0000
vt 0.5016 0.9422 0.0000
vt 0.1777 0.3621 0.0000
vt 0.1274 0.3482 0.0000
vt 0.7715 0.4293 0.0000
vt 0.5260 0.8674 0.0000
vt 0.0206 0.1856 0.0000
vt 0.4744 0.2480 0.0000
vt 0.8360 0.6042 0.0000
vt 0.9057 0.6216 0.0000
vt 0.9047 0.6419 0.0000
vt 0.1348 0.9874 0.0000
vt 0.0850 0.9637 0.0000
vt 0.1204 0.9676 0.0000
vt 0.0615 0.9396 0.0000
vt 0.2004 0.7793 0.0000
vt 0.2918 0.7238 0.0000
vt 0.7211 0.1375 0.0000
vt 0.6567 0.1354 0.0000
vt 0.4985 0.6122 0.0000
vt 0.4474 0.6204 0.0000
vt 0.4487 0.5928 0.0000
vt 0.4659 0.5653 0.0000
vt 0.6749 0.4425 0.0000
vt 0.2809 0.9590 0.0000
vt 0.2269 0.9788 0.0000
vt 0.1687 0.9816 0.0000
vt 0.1935 0.9644 0.0000
vt 0.5597 0.7512 0.0000
vt 0.5262 0.7776 0.0000
vt 0.5382 0.7387 0.0000
vt 0.9677 0.3636 0.0000
vt 0.8883 0.3806 0.0000
vt 0.9068 0.3722 0.0000
vt 0.9514 0.6567 0.0000
vt 0.9474 0.6200 0.0000
vt 0.9740 0.6282 0.0000
vt 0.9802 0.5816 0.0000
vt 0.9782 0.6095 0.0000
vt 0.9500 0.5831 0.0000
vt 0.8373 0.9132 0.0000
vt 0.8829 0.9513 0.0000
vt 0.8351 0.9407 0.0000
vt 0.7999 0.4724 0.0000
vt 0.8064 0.4306 0.0000
vt 0.1388 0.7674 0.0000
vt 0.1057 0.7563 0.0000
vt 0.0478 0.7538 0.0000
vt 0.3907 0.4378 0.0000
vt 0.3646 0.4689 0.0000
vt 0.9128 0.7082 0.0000
vt 0.9218 0.6979 0.0000
vt 0.9940 0.9920 0.0000
vt 0.9328 0.9852 0.0000
vt 0.9366 0.9663 0.0000
vt 0.8975 0.9891 0.0000
vt 0.8521 0.9716 0.0000
vt 0.9064 0.9652 0.0000
vt 0.0334 0.2136 0.0000
vt 0.2329 0.6808 0.0000
vt 0.1864 0.6554 0.0000
vt 0.2359 0.6523 0.0000
vt 0.8972 0.0280 0.0000
vt 0.9528 0.0616 0.0000
vt 0.9187 0.0311 0.0000
vt 0.9950 0.9745 0.0000
vt 0.6651 0.1824 0.0000
vt 0.4994 0.1712 0.0000
vt 0.4860 0.1804 0.0000
vt 0.4626 0.1420 0.0000
vt 0.1638 0.0197 0.0000
vt 0.0562 0.4338 0.0000
vt 0.1027 0.4120 0.0000
vt 0.1012 0.4426 0.0000
vt 0.8159 0.8917 0.0000
vt 0.2059 0.3881 0.0000
vt 0.0497 0.4656 0.0000
vt 0.0447 0.6092 0.0000
vt 0.0050 0.6217 0.0000
vt 0.8807 0.7529 0.0000
vt 0.8714 0.7271 0.0000
vt 0.8886 0.7320 0.0000
vt 0.6160 0.1707 0.0000
vt 0.5850 0.1403 0.0000
vt 0.7039 0.8972 0.0000
vt 0.6626 0.8937 0.0000
vt 0.6120 0.3429 0.0000
vt 0.6494 0.3336 0.0000
vt 0.6461 0.3911 0.0000
vt 0.1881 0.6908 0.0000
vt 0.9081 0.9284 0.0000
vt 0.0999 0.7119 0.0000
vt 0.1051 0.6965 0.0000
vt 0.1994 0.7096 0.0000
vt 0.4023 0.9757 0.0000
vt 0.3488 0.9911 0.0000
vt 0.7916 0.0931 0.0000
vt 0.2271 0.5324 0.0000
vt 0.1891 0.5319 0.0000
vt 0.4985 0.5394 0.0000
vt 0.5379 0.6177 0.0000
vt 0.5257 0.5976 0.0000
vt 0.5419 0.5800 0.0000
vt 0.5641 0.7069 0.0000
vt 0.7310 0.7665 0.0000
vt 0.7026 0.7707 0.0000
vt 0.7015 0.7313 0.0000
vt 0.4821 0.5854 0.0000
vt 0.6107 0.2006 0.0000
vt 0.6231 0.2087 0.0000
vt 0.6062 0.2654 0.0000
vt 0.0569 0.0232 0.0000
vt 0.2736 0.6789 0.0000
vt 0.3078 0.6234 0.0000
vt 0.3091 0.6617 0.0000
vt 0.6802 0.9154 0.0000
vt 0.7308 0.7362 0.0000
vt 0.9434 0.3954 0.0000
vt 0.9505 0.9104 0.0000
vt 0.9097 0.9540 0.0000
vt 0.6144 0.3855 0.0000
vt 0.6903 0.7662 0.0000
vt 0.6509 0.6601 0.0000
vt 0.6453 0.6672 0.0000
vt 0.2773 0.6295 0.0000
vt 0.1779 0.9927 0.0000
vt 0.3679 0.8615 0.0000
vt 0.0561 0.3768 0.0000
vt 0.0953 0.3713 0.0000
vt 0.7222 0.3463 0.0000
vt 0.7026 0.3840 0.0000
vt 0.6965 0.3546 0.0000
vt 0.6866 0.4229 0.0000
vt 0.7174 0.4432 0.0000
vt 0.6887 0.4751 0.0000
vt 0.8639 0.8002 0.0000
vt 0.3514 0.5132 0.0000
vt 0.6143 0.2754 0.0000
vt 0.8349 0.6904 0.0000
vt 0.4095 0.1935 0.0000
vt 0.3881 0.2081 0.0000
vt 0.6432 0.4287 0.0000
vt 0.8358 0.9931 0.0000
vt 0.9759 0.6895 0.0000
vt 0.9516 0.6796 0.0000
vt 0.9676 0.6612 0.0000
vt 0.3270 0.5034 0.0000
vt 0.4080 0.3033 0.0000
vt 0.3948 0.2428 0.0000
vt 0.4154 0.2762 0.0000
vt 0.4257 0.2853 0.0000
vt 0.4566 0.2890 0.0000
vt 0.9926 0.4733 0.0000
vt 0.4251 0.1405 0.0000
vt 0.6430 0.1817 0.0000
vt 0.6456 0.1588 0.0000
vt 0.6626 0.1658 0.0000
vt 0.4211 0.4584 0.0000
vt 0.4276 0.4910 0.0000
vt 0.2629 0.9504 0.0000
vt 0.9894 0.4873 0.0000
vt 0.9843 0.5055 0.0000
vt 0.9356 0.4826 0.0000
vt 0.8956 0.8354 0.0000
vt 0.8743 0.8268 0.0000
vt 0.8756 0.8090 0.0000
vt 0.4581 0.4581 0.0000
vt 0.4604 0.1968 0.0000
vt 0.4728 0.1989 0.0000
vt 0.1532 0.3672 0.0000
vt 0.9686 0.1392 0.0000
vt 0.1379 0.4454 0.0000
vt 0.0251 0.7735 0.0000
vt 0.0100 0.7859 0.0000
vt 0.9431 0.8934 0.0000
vt 0.9405 0.8669 0.0000
vt 0.9617 0.8641 0.0000
vt 0.3819 0.3914 0.0000
vt 0.4165 0.4091 0.0000
vt 0.3438 0.3951 0.0000
vt 0.6672 0.0672 0.0000
vt 0.6901 0.0183 0.0000
vt 0.5150 0.9801 0.0000
vt 0.4977 0.9897 0.0000
vt 0.4549 0.9738 0.0000
vt 0.0694 0.3365 0.0000
vt 0.0616 0.3402 0.0000
vt 0.4311 0.3731 0.0000
vt 0.1035 0.4519 0.0000
vt 0.0134 0.4505 0.0000
vt 0.0156 0.4318 0.0000
vt 0.6368 0.7524 0.0000
vt 0.6743 0.7568 0.0000
vt 0.6465 0.7653 0.0000
vt 0.3656 0.4249 0.0000
vt 0.2836 0.3646 0.0000
vt 0.3145 0.3878 0.0000
vt 0.3055 0.4054 0.0000
vt 0.4812 0.9318 0.0000
vt 0.4894 0.9121 0.0000
vt 0.3917 0.3716 0.0000
vt 0.3410 0.3812 0.0000
vt 0.3393 0.3632 0.0000
vt 0.3079 0.3638 0.0000
vt 0.6218 0.7221 0.0000
vt 0.4045 0.2298 0.0000
vt 0.7524 0.0991 0.0000
vt 0.4186 0.9587 0.0000
vt 0.7895 0.7255 0.0000
vt 0.0243 0.6368 0.0000
vt 0.0050 0.6977 0.0000
vt 0.0092 0.6541 0.0000
vt 0.0173 0.8913 0.0000
vt 0.7666 0.3582 0.0000
vt 0.9125 0.3616 0.0000
vt 0.7603 0.4306 0.0000
vt 0.7562 0.3683 0.0000
vt 0.6911 0.5569 0.0000
vt 0.7115 0.5495 0.0000
vt 0.6866 0.5757 0.0000
vt 0.6663 0.2400 0.0000
vt 0.1096 0.0293 0.0000
vt 0.5756 0.7821 0.0000
vt 0.9427 0.5100 0.0000
vt 0.9441 0.5407 0.0000
vt 0.4556 0.5068 0.0000
vt 0.8357 0.5809 0.0000
vt 0.9153 0.6013 0.0000
vt 0.9817 0.5298 0.0000
vt 0.0441 0.9684 0.0000
vt 0.0210 0.7069 0.0000
vt 0.0157 0.7282 0.0000
vt 0.3488 0.8960 0.0000
vt 0.3625 0.9456 0.0000
vt 0.1713 0.0102 0.0000
vt 0.3291 0.3958 0.0000
vt 0.3386 0.4236 0.0000
vt 0.9471 0.9574 0.0000
vt 0.4080 0.5542 0.0000
vt 0.6486 0.4126 0.0000
vt 0.6231 0.4199 0.0000
vt 0.5791 0.7065 0.0000
vt 0.7412 0.5653 0.0000
vt 0.7540 0.5830 0.0000
vt 0.7446 0.5879 0.0000
vt 0.6344 0.3284 0.0000
vt 0.4999 0.5708 0.0000
vt 0.4837 0.5727 0.0000
vt 0.5362 0.3098 0.0000
vt 0.5931 0.3175 0.0000
vt 0.5274 0.3174 0.0000
vt 0.4074 0.7023 0.0000
vt 0.4744 0.9170 0.0000
vt 0.5139 0.2578 0.0000
vt 0.9147 0.8644 0.0000
vt 0.9041 0.8899 0.0000
vt 0.0951 0.3607 0.0000
vt 0.7955 0.5838 0.0000
vt 0.7711 0.6177 0.0000
vt 0.7828 0.5821 0.0000
vt 0.5119 0.5621 0.0000
vt 0.3771 0.7627 0.0000
vt 0.0947 0.3592 0.0000
vt 0.5323 0.6936 0.0000
vt 0.5422 0.6472 0.0000
vt 0.5482 0.6418 0.0000
vt 0.8308 0.5672 0.0000
vt 0.6857 0.5970 0.0000
vt 0.6418 0.6042 0.0000
vt 0.0589 0.7303 0.0000
vt 0.6582 0.6766 0.0000
vt 0.7015 0.6835 0.0000
vt 0.6468 0.6882 0.0000
vt 0.3683 0.3820 0.0000
vt 0.6474 0.0401 0.0000
vt 0.6108 0.0534 0.0000
vt 0.6012 0.0398 0.0000
vt 0.5538 0.1095 0.0000
vt 0.6391 0.1216 0.0000
vt 0.5373 0.1227 0.0000
vt 0.3430 0.6812 0.0000
vt 0.3360 0.6486 0.0000
vt 0.8474 0.8076 0.0000
vt 0.1366 0.0349 0.0000
vt 0.1465 0.0241 0.0000
vt 0.3979 0.8642 0.0000
vt 0.5476 0.4702 0.0000
vt 0.5468 0.4229 0.0000
vt 0.8181 0.6092 0.0000
vt 0.8010 0.6088 0.0000
vt 0.8134 0.5920 0.0000
vt 0.9708 0.7140 0.0000
vt 0.9489 0.7015 0.0000
vt 0.1717 0.7965 0.0000
vt 0.7041 0.5390 0.0000
vt 0.7308 0.5224 0.0000
vt 0.3073 0.3641 0.0000
vt 0.0079 0.2446 0.0000
vt 0.3718 0.5276 0.0000
vt 0.3935 0.5286 0.0000
vt 0.0330 0.1088 0.0000
vt 0.0111 0.0779 0.0000
vt 0.2705 0.6379 0.0000
vt 0.8983 0.8180 0.0000
vt 0.7530 0.8010 0.0000
vt 0.0050 0.2854 0.0000
vt 0.8368 0.6433 0.0000
vt 0.8589 0.6364 0.0000
vt 0.9208 0.6562 0.0000
vt 0.0075 0.4698 0.0000
vt 0.5075 0.5953 0.0000
vt 0.5048 0.7738 0.0000
vt 0.5329 0.7146 0.0000
vt 0.6738 0.4229 0.0000
vt 0.9205 0.6287 0.0000
vt 0.7581 0.6041 0.0000
vt 0.0730 0.6299 0.0000
vt 0.0443 0.6304 0.0000
vt 0.2604 0.9423 0.0000
vt 0.2876 0.9211 0.0000
vt 0.5477 0.7144 0.0000
vt 0.7164 0.5572 0.0000
vt 0.6966 0.7968 0.0000
vt 0.4849 0.3271 0.0000
vt 0.9502 0.6045 0.0000
vt 0.6167 0.9623 0.0000
vt 0.7191 0.4839 0.0000
vt 0.0486 0.0220 0.0000
vt 0.3847 0.2730 0.0000
vt 0.6020 0.9905 0.0000
vt 0.7203 0.4052 0.0000
vt 0.7164 0.3781 0.0000
vt 0.7299 0.3854 0.0000
vt 0.8855 0.8445 0.0000
vt 0.8507 0.8288 0.0000
vt 0.9395 0.5895 0.0000
vt 0.1580 0.6337 0.0000
vt 0.1542 0.6219 0.0000
vt 0.1765 0.6221 0.0000
vt 0.0343 0.1604 0.0000
vt 0.0500 0.1285 0.0000
vt 0.8226 0.9503 0.0000
vt 0.3258 0.5282 0.0000
vt 0.5410 0.4905 0.0000
vt 0.3735 0.7015 0.0000
vt 0.7187 0.7092 0.0000
vt 0.7015 0.6969 0.0000
vt 0.7307 0.6965 0.0000
vt 0.9821 0.6614 0.0000
vt 0.8199 0.9269 0.0000
vt 0.7765 0.9258 0.0000
vt 0.7471 0.9238 0.0000
vt 0.2308 0.7598 0.0000
vt 0.6199 0.3207 0.0000
vt 0.5426 0.3277 0.0000
vt 0.5276 0.4864 0.0000
vt 0.4942 0.4772 0.0000
vt 0.5896 0.8690 0.0000
vt 0.8213 0.9384 0.0000
vt 0.8698 0.8527 0.0000
vt 0.7524 0.6949 0.0000
vt 0.6020 0.9135 0.0000
vt 0.6287 0.9005 0.0000
vt 0.6308 0.9376 0.0000
vt 0.6418 0.7832 0.0000
vt 0.6478 0.9101 0.0000
vt 0.6417 0.9333 0.0000
vt 0.6269 0.2944 0.0000
vt 0.9910 0.5925 0.0000
vt 0.9940 0.5214 0.0000
vt 0.5510 0.6321 0.0000
vt 0.5365 0.6280 0.0000
vt 0.7001 0.8299 0.0000
vt 0.6620 0.8397 0.0000
vt 0.6699 0.8258 0.0000
vt 0.7426 0.2718 0.0000
vt 0.7375 0.2901 0.0000
vt 0.7114 0.2694 0.0000
vt 0.3296 0.9304 0.0000
vt 0.3202 0.6360 0.0000
vt 0.7904 0.6121 0.0000
vt 0.2393 0.7530 0.0000
vt 0.2563 0.7577 0.0000
vt 0.6533 0.7178 0.0000
vt 0.3483 0.4743 0.0000
vt 0.3394 0.6074 0.0000
vt 0.6121 0.0597 0.0000
vt 0.6529 0.0674 0.0000
vt 0.6119 0.0728 0.0000
vt 0.3490 0.6215 0.0000
vt 0.3690 0.4449 0.0000
vt 0.5984 0.0603 0.0000
vt 0.5459 0.0957 0.0000
vt 0.5237 0.1032 0.0000
vt 0.8362 0.6050 0.0000
vt 0.8760 0.0183 0.0000
vt 0.9336 0.0231 0.0000
vt 0.6769 0.1772 0.0000
vt 0.6613 0.1493 0.0000
vt 0.1592 0.6537 0.0000
vt 0.3789 0.1423 0.0000
vt 0.3741 0.2067 0.0000
vt 0.2711 0.0354 0.0000
vt 0.7346 0.6447 0.0000
vt 0.7324 0.6623 0.0000
vt 0.3197 0.3823 0.0000
vt 0.8174 0.6816 0.0000
vt 0.7968 0.6929 0.0000
vt 0.7861 0.6818 0.0000
vt 0.4265 0.3155 0.0000
vt 0.4405 0.5730 0.0000
vt 0.6119 0.4056 0.0000
vt 0.0073 0.4325 0.0000
vt 0.3980 0.6341 0.0000
vt 0.4057 0.5729 0.0000
vt 0.4060 0.6366 0.0000
vt 0.7221 0.4287 0.0000
vt 0.6670 0.2283 0.0000
vt 0.9531 0.8510 0.0000
vt 0.3567 0.8607 0.0000
vt 0.0166 0.3682 0.0000
vt 0.8383 0.7068 0.0000
vt 0.3854 0.6189 0.0000
vt 0.3975 0.5526 0.0000
vt 0.1398 0.5970 0.0000
vt 0.1494 0.6029 0.0000
vt 0.1469 0.6286 0.0000
vt 0.8812 0.8907 0.0000
vt 0.3062 0.7254 0.0000
vt 0.3295 0.7751 0.0000
vt 0.2935 0.7140 0.0000
vt 0.1379 0.5839 0.0000
vt 0.6567 0.6927 0.0000
vt 0.6724 0.6915 0.0000
vt 0.7002 0.7214 0.0000
vt 0.4428 0.4617 0.0000
vt 0.4467 0.4360 0.0000
vt 0.5055 0.1605 0.0000
vt 0.1393 0.6437 0.0000
vt 0.3202 0.5492 0.0000
vt 0.6511 0.5223 0.0000
vt 0.6846 0.5142 0.0000
vt 0.7059 0.5206 0.0000
vt 0.4680 0.9280 0.0000
vt 0.5489 0.5572 0.0000
vt 0.5512 0.6176 0.0000
vt 0.4553 0.4292 0.0000
vt 0.6468 0.5124 0.0000
vt 0.6628 0.5157 0.0000
vt 0.3275 0.5442 0.0000
vt 0.3925 0.5423 0.0000
vt 0.4903 0.1572 0.0000
vt 0.8356 0.5702 0.0000
vt 0.7960 0.9056 0.0000
vt 0.8041 0.9055 0.0000
vt 0.8052 0.9165 0.0000
vt 0.7322 0.7892 0.0000
vt 0.7114 0.7826 0.0000
vt 0.7351 0.7811 0.0000
vt 0.5556 0.7835 0.0000
vt 0.5025 0.7787 0.0000
vt 0.8955 0.8557 0.0000
vt 0.9375 0.8599 0.0000
vt 0.8879 0.7927 0.0000
vt 0.7423 0.5373 0.0000
vt 0.7600 0.5422 0.0000
vt 0.7264 0.5446 0.0000
vt 0.4279 0.5846 0.0000
vt 0.9001 0.4032 0.0000
vt 0.8284 0.4021 0.0000
vt 0.8259 0.9125 0.0000
vt 0.3453 0.9427 0.0000
vt 0.7168 0.3191 0.0000
vt 0.8066 0.0929 0.0000
vt 0.4940 0.5821 0.0000
vt 0.8193 0.4079 0.0000
vt 0.0957 0.3738 0.0000
vt 0.7343 0.3184 0.0000
vt 0.4245 0.9488 0.0000
vt 0.4120 0.9417 0.0000
vt 0.6222 0.8002 0.0000
vt 0.6082 0.7761 0.0000
vt 0.6581 0.8100 0.0000
vt 0.7376 0.7172 0.0000
vt 0.5224 0.1210 0.0000
vt 0.9597 0.8938 0.0000
vt 0.4144 0.4255 0.0000
vt 0.5902 0.9243 0.0000
vt 0.5932 0.1364 0.0000
vt 0.6149 0.1555 0.0000
vt 0.6230 0.1707 0.0000
vt 0.4865 0.7076 0.0000
vt 0.9833 0.3642 0.0000
vt 0.7963 0.3337 0.0000
vt 0.7413 0.3388 0.0000
vt 0.7414 0.3333 0.0000
vt 0.7698 0.9913 0.0000
vt 0.2789 0.5084 0.0000
vt 0.6562 0.3935 0.0000
vt 0.6570 0.3452 0.0000
vt 0.1912 0.4925 0.0000
vt 0.1899 0.5017 0.0000
vt 0.4782 0.5323 0.0000
vt 0.4663 0.2688 0.0000
vt 0.4682 0.2383 0.0000
vt 0.2687 0.6852 0.0000
vt 0.2755 0.6905 0.0000
vt 0.4067 0.8670 0.0000
vt 0.2509 0.9810 0.0000
vt 0.9421 0.6477 0.0000
vt 0.4492 0.3195 0.0000
vt 0.8964 0.8902 0.0000
vt 0.7677 0.4901 0.0000
vt 0.7662 0.4826 0.0000
vt 0.8015 0.4872 0.0000
vt 0.5823 0.7904 0.0000
vt 0.5881 0.7384 0.0000
vt 0.1271 0.0362 0.0000
vt 0.3391 0.4950 0.0000
vt 0.6766 0.5028 0.0000
vt 0.1789 0.6418 0.0000
vt 0.4476 0.1834 0.0000
vt 0.7624 0.7065 0.0000
vt 0.7510 0.7157 0.0000
vt 0.7463 0.7072 0.0000
vt 0.9603 0.9104 0.0000
vt 0.9700 0.9587 0.0000
vt 0.9602 0.9594 0.0000
vt 0.7413 0.7283 0.0000
vt 0.7708 0.7214 0.0000
vt 0.7713 0.7335 0.0000
vt 0.6743 0.9443 0.0000
vt 0.7841 0.0106 0.0000
vt 0.7323 0.0100 0.0000
vt 0.6673 0.9540 0.0000
vt 0.5102 0.6158 0.0000
vt 0.0837 0.9887 0.0000
vt 0.5124 0.7344 0.0000
vt 0.4975 0.7195 0.0000
vt 0.5119 0.7114 0.0000
vt 0.6799 0.8010 0.0000
vt 0.5232 0.6086 0.0000
vt 0.5095 0.6037 0.0000
vt 0.7507 0.5593 0.0000
vt 0.8150 0.7142 0.0000
vt 0.7861 0.7114 0.0000
vt 0.0933 0.9583 0.0000
vt 0.0719 0.9457 0.0000
vt 0.2488 0.6494 0.0000
vt 0.2543 0.6368 0.0000
vt 0.2557 0.6598 0.0000
vt 0.0718 0.9293 0.0000
vt 0.0576 0.8761 0.0000
vt 0.8557 0.9055 0.0000
vt 0.8884 0.9055 0.0000
vt 0.8775 0.9110 0.0000
vt 0.4380 0.5833 0.0000
vt 0.7663 0.1019 0.0000
vt 0.1422 0.9764 0.0000
vt 0.7910 0.8358 0.0000
vt 0.8057 0.8360 0.0000
vt 0.8056 0.8579 0.0000
vt 0.9939 0.1393 0.0000
vt 0.7678 0.4715 0.0000
vt 0.4092 0.1514 0.0000
vt 0.5206 0.1836 0.0000
vt 0.6347 0.1987 0.0000
vt 0.4487 0.1294 0.0000
vt 0.1544 0.9687 0.0000
vt 0.3407 0.6894 0.0000
vt 0.6053 0.9303 0.0000
vt 0.6167 0.9405 0.0000
vt 0.6020 0.9365 0.0000
vt 0.5007 0.3275 0.0000
vt 0.6617 0.8209 0.0000
vt 0.3454 0.8648 0.0000
vt 0.3998 0.5622 0.0000
vt 0.6251 0.7114 0.0000
vt 0.5910 0.7015 0.0000
vt 0.9257 0.6034 0.0000
vt 0.0745 0.7795 0.0000
vt 0.0563 0.8448 0.0000
vt 0.5118 0.2510 0.0000
vt 0.7316 0.6873 0.0000
vt 0.6915 0.6954 0.0000
vt 0.7273 0.6816 0.0000
vt 0.7965 0.1007 0.0000
vt 0.6782 0.6559 0.0000
vt 0.6890 0.7408 0.0000
vt 0.8193 0.4294 0.0000
vt 0.8746 0.7211 0.0000
vt 0.7034 0.5145 0.0000
vt 0.8020 0.8262 0.0000
vt 0.7761 0.8101 0.0000
vt 0.7842 0.8060 0.0000
vt 0.4397 0.4865 0.0000
vt 0.4301 0.4539 0.0000
vt 0.0159 0.3143 0.0000
vt 0.6775 0.6642 0.0000
vt 0.8536 0.8162 0.0000
vt 0.9917 0.9590 0.0000
vt 0.9801 0.9589 0.0000
vt 0.9808 0.9502 0.0000
vt 0.0256 0.2097 0.0000
vt 0.0233 0.2203 0.0000
vt 0.2381 0.6418 0.0000
vt 0.5970 0.7803 0.0000
vt 0.2554 0.5440 0.0000
vt 0.6318 0.4629 0.0000
vt 0.6330 0.4269 0.0000
vt 0.5040 0.7407 0.0000
vt 0.6221 0.3303 0.0000
vt 0.6617 0.8657 0.0000
vt 0.6736 0.2849 0.0000
vt 0.6456 0.2864 0.0000
vt 0.5451 0.2781 0.0000
vt 0.5587 0.6896 0.0000
vt 0.5522 0.6943 0.0000
vt 0.5523 0.6517 0.0000
vt 0.0231 0.7354 0.0000
vt 0.6503 0.7070 0.0000
vt 0.9353 0.5178 0.0000
vt 0.5950 0.3085 0.0000
vt 0.6527 0.7358 0.0000
vt 0.8231 0.8458 0.0000
vt 0.8043 0.3386 0.0000
vt 0.6726 0.1963 0.0000
vt 0.6821 0.1623 0.0000
vt 0.7226 0.7910 0.0000
vt 0.7206 0.8109 0.0000
vt 0.7156 0.7989 0.0000
vt 0.6915 0.8115 0.0000
vt 0.6763 0.2313 0.0000
vt 0.8095 0.4538 0.0000
vt 0.3383 0.9041 0.0000
vt 0.0183 0.0619 0.0000
vt 0.2795 0.6119 0.0000
vt 0.7317 0.4292 0.0000
vt 0.8808 0.8549 0.0000
vt 0.5405 0.5662 0.0000
vt 0.4584 0.9382 0.0000
vt 0.2596 0.0183 0.0000
vt 0.2164 0.7020 0.0000
vt 0.8362 0.9680 0.0000
vt 0.4533 0.2815 0.0000
vt 0.4387 0.2868 0.0000
vt 0.4260 0.1319 0.0000
vt 0.8835 0.8060 0.0000
vt 0.6999 0.8662 0.0000
vt 0.2431 0.0100 0.0000
vt 0.7487 0.2687 0.0000
# 801 texture coords

o Object001
g Object001
usemtl default
s 1
f 1/1/1 2/2/2 3/3/3 
f 4/4/4 5/5/5 6/6/6 
f 7/7/7 8/8/8 9/9/9 
f 10/10/10 11/11/11 12/12/12 
f 13/13/13 14/14/14 15/15/15 
f 16/16/16 17/17/17 18/18/18 
f 19/19/19 20/20/20 21/21/21 
f 22/22/22 23/23/23 24/24/24 
f 8/8/8 25/25/25 9/9/9 
f 26/26/26 27/27/27 28/28/28 
f 29/29/29 30/30/30 31/31/31 
f 32/32/32 33/33/33 34/34/34 
f 35/35/35 36/36/36 8/8/8 
f 37/37/37 38/38/38 39/39/39 
f 40/40/40 41/41/41 42/42/42 
f 43/43/43 44/44/44 45/45/45 
f 46/46/46 47/47/47 48/48/48 
f 49/49/49 50/50/50 10/10/10 
f 51/51/51 52/52/52 53/53/53 
f 54/54/54 55/55/55 56/56/56 
f 57/57/57 58/58/58 59/59/59 
f 60/60/60 61/61/61 62/62/62 
f 63/63/63 64/64/64 65/65/65 
f 63/63/63 66/66/66 67/67/67 
f 68/68/68 69/69/69 2/2/2 
f 70/70/70 71/71/71 72/72/72 
f 10/10/10 50/50/50 73/73/73 
f 74/74/74 75/75/75 76/76/76 
f 71/77/71 70/78/70 77/79/77 
f 78/80/78 79/81/79 80/82/80 
f 81/83/81 82/84/82 83/85/83 
f 84/86/84 85/87/85 16/16/16 
f 86/88/86 87/89/87 88/90/88 
f 89/91/89 90/92/90 91/93/91 
f 92/94/92 93/95/93 94/96/94 
f 95/97/95 96/98/96 97/99/97 
f 98/100/98 6/6/6 5/5/5 
f 99/101/99 100/102/100 101/103/101 
f 102/104/102 103/105/103 39/39/39 
f 104/106/104 102/107/102 105/108/105 
f 106/109/106 107/110/107 108/111/108 
f 109/112/109 110/113/110 111/114/111 
f 5/5/5 112/115/112 98/100/98 
f 113/116/113 114/117/114 115/118/115 
f 116/119/116 117/120/117 118/121/118 
f 119/122/119 120/123/120 121/124/121 
f 122/125/122 123/126/123 124/127/124 
f 125/128/125 126/129/126 123/126/123 
f 127/130/127 18/18/18 17/17/17 
f 128/131/128 129/132/129 130/133/130 
f 88/90/88 131/134/131 132/135/132 
f 131/134/131 133/136/133 132/135/132 
f 134/137/134 129/132/129 135/138/135 
f 129/132/129 128/131/128 135/138/135 
f 123/126/123 126/129/126 124/127/124 
f 136/139/136 137/140/137 138/141/138 
f 139/142/139 79/81/79 78/80/78 
f 140/143/140 63/63/63 65/65/65 
f 141/144/141 142/145/142 143/146/143 
f 1/1/1 144/147/144 2/2/2 
f 145/148/145 146/149/146 147/150/147 
f 148/151/148 149/152/149 3/3/3 
f 5/5/5 150/153/150 151/154/151 
f 152/155/152 90/92/90 89/91/89 
f 144/147/144 1/1/1 153/156/153 
f 49/49/49 154/157/154 50/50/50 
f 64/64/64 63/63/63 155/158/155 
f 156/159/156 56/160/56 55/161/55 
f 157/162/157 158/163/158 159/164/159 
f 160/165/160 130/133/130 129/132/129 
f 161/166/161 34/34/34 87/89/87 
f 162/167/162 87/89/87 34/34/34 
f 163/168/163 164/169/164 48/48/48 
f 165/170/165 166/171/166 167/172/167 
f 45/45/45 168/173/168 43/43/43 
f 169/174/169 95/97/95 97/99/97 
f 131/134/131 170/175/170 133/136/133 
f 171/176/171 172/177/172 173/178/173 
f 10/10/10 73/73/73 11/11/11 
f 174/179/174 175/180/175 176/181/176 
f 177/182/177 141/144/141 143/146/143 
f 91/93/91 178/183/178 179/184/179 
f 180/185/180 181/186/181 182/187/182 
f 183/188/183 184/189/184 185/190/185 
f 186/191/186 187/192/187 188/193/188 
f 151/194/151 152/155/152 189/195/189 
f 32/32/32 190/196/190 33/33/33 
f 191/197/191 192/198/192 33/33/33 
f 193/199/193 105/108/105 194/200/194 
f 195/201/195 58/58/58 193/202/193 
f 196/203/196 197/204/197 198/205/198 
f 199/206/199 200/207/200 201/208/201 
f 4/4/4 6/6/6 202/209/202 
f 203/210/203 204/211/204 205/212/205 
f 35/35/35 8/8/8 206/213/206 
f 31/31/31 207/214/207 208/215/208 
f 209/216/209 196/203/196 198/205/198 
f 210/217/210 120/123/120 119/122/119 
f 211/218/211 108/111/108 107/110/107 
f 211/218/211 212/219/212 213/220/213 
f 12/12/12 11/11/11 214/221/214 
f 215/222/215 216/223/216 217/224/217 
f 113/116/113 115/118/115 150/225/150 
f 5/5/5 113/226/113 150/153/150 
f 164/169/164 46/46/46 48/48/48 
f 218/227/218 219/228/219 164/229/164 
f 220/230/220 221/231/221 52/232/52 
f 222/233/222 106/109/106 223/234/223 
f 224/235/224 225/236/225 82/84/82 
f 226/237/226 225/238/225 227/239/227 
f 228/240/228 204/211/204 203/210/203 
f 187/192/187 186/191/186 229/241/229 
f 230/242/230 231/243/231 232/244/232 
f 231/245/231 21/246/21 24/24/24 
f 25/25/25 233/247/233 9/9/9 
f 234/248/234 235/249/235 138/141/138 
f 155/158/155 63/63/63 67/67/67 
f 236/250/236 168/173/168 45/45/45 
f 237/251/237 238/252/238 239/253/239 
f 240/254/240 174/179/174 176/181/176 
f 241/255/241 25/256/25 235/257/235 
f 167/172/167 242/258/242 165/170/165 
f 222/233/222 243/259/243 106/109/106 
f 243/259/243 79/260/79 244/261/244 
f 11/11/11 73/73/73 245/262/245 
f 246/263/246 147/264/147 146/265/146 
f 124/127/124 126/129/126 235/266/235 
f 241/255/241 235/257/235 247/267/247 
f 91/93/91 179/184/179 248/268/248 
f 248/269/248 249/270/249 229/241/229 
f 226/237/226 227/239/227 250/271/250 
f 251/272/251 92/94/92 94/96/94 
f 177/182/177 248/268/248 179/184/179 
f 162/167/162 88/90/88 87/89/87 
f 76/76/76 252/273/252 253/274/253 
f 246/263/246 254/275/254 147/264/147 
f 172/177/172 8/276/8 157/162/157 
f 171/176/171 8/276/8 172/177/172 
f 214/277/214 22/22/22 24/24/24 
f 215/222/215 255/278/255 216/223/216 
f 216/223/216 255/278/255 256/279/256 
f 20/280/20 19/281/19 216/282/216 
f 163/283/163 48/284/48 4/285/4 
f 49/49/49 4/4/4 154/157/154 
f 38/38/38 220/230/220 257/286/257 
f 105/108/105 51/287/51 194/200/194 
f 244/261/244 79/260/79 139/288/139 
f 59/59/59 58/58/58 65/289/65 
f 258/290/258 197/291/197 14/14/14 
f 169/174/169 97/99/97 259/292/259 
f 260/293/260 200/207/200 199/206/199 
f 261/294/261 262/295/262 263/296/263 
f 137/140/137 136/139/136 264/297/264 
f 208/215/208 207/214/207 35/35/35 
f 260/298/260 199/299/199 96/300/96 
f 66/66/66 224/301/224 265/302/265 
f 4/4/4 202/209/202 154/157/154 
f 154/303/154 142/145/142 141/144/141 
f 15/15/15 266/304/266 213/220/213 
f 267/305/267 268/306/268 269/307/269 
f 57/57/57 193/202/193 58/58/58 
f 270/308/270 271/309/271 104/106/104 
f 170/175/170 272/310/272 133/136/133 
f 273/311/273 274/312/274 139/313/139 
f 209/314/209 275/315/275 268/316/268 
f 134/137/134 192/198/192 191/197/191 
f 41/41/41 40/40/40 276/317/276 
f 104/106/104 271/309/271 102/107/102 
f 212/219/212 15/15/15 213/220/213 
f 155/158/155 44/318/44 277/319/277 
f 150/153/150 278/320/278 151/154/151 
f 29/29/29 150/321/150 30/30/30 
f 19/19/19 21/21/21 279/322/279 
f 279/323/279 128/131/128 127/324/127 
f 280/325/280 281/326/281 282/327/282 
f 283/328/283 280/329/280 100/330/100 
f 157/162/157 130/133/130 158/163/158 
f 284/331/284 85/332/85 47/47/47 
f 68/68/68 285/333/285 69/69/69 
f 232/334/232 231/245/231 286/335/286 
f 287/336/287 288/337/288 98/100/98 
f 280/329/280 283/328/283 289/338/289 
f 290/339/290 291/340/291 215/222/215 
f 215/222/215 292/341/292 255/278/255 
f 293/342/293 75/343/75 294/344/294 
f 1/1/1 3/3/3 149/152/149 
f 280/329/280 187/345/187 100/330/100 
f 203/346/203 27/347/27 228/348/228 
f 295/349/295 294/350/294 149/152/149 
f 149/152/149 148/151/148 295/349/295 
f 291/340/291 218/227/218 164/229/164 
f 17/17/17 291/340/291 127/130/127 
f 288/351/288 101/352/101 296/353/296 
f 296/353/296 101/352/101 28/354/28 
f 297/355/297 70/70/70 72/72/72 
f 106/109/106 108/111/108 223/234/223 
f 298/356/298 197/291/197 258/290/258 
f 96/300/96 199/299/199 298/356/298 
f 48/48/48 47/47/47 9/9/9 
f 9/9/9 233/247/233 299/357/299 
f 24/24/24 23/23/23 231/245/231 
f 300/358/300 286/335/286 231/245/231 
f 107/110/107 212/219/212 211/218/211 
f 301/359/301 37/37/37 39/39/39 
f 128/360/128 85/361/85 84/362/84 
f 128/131/128 18/363/18 127/324/127 
f 131/364/131 302/365/302 90/92/90 
f 90/92/90 29/366/29 31/367/31 
f 111/368/111 161/369/161 109/370/109 
f 303/371/303 117/120/117 116/119/116 
f 11/11/11 245/262/245 304/372/304 
f 174/179/174 240/254/240 305/373/305 
f 139/313/139 274/312/274 306/374/306 
f 185/190/185 307/375/307 183/188/183 
f 271/309/271 308/376/308 102/107/102 
f 309/377/309 310/378/310 56/160/56 
f 171/176/171 173/178/173 272/310/272 
f 311/379/311 183/188/183 307/375/307 
f 130/133/130 85/380/85 128/131/128 
f 130/381/130 47/382/47 85/361/85 
f 312/383/312 214/277/214 313/384/313 
f 12/12/12 214/221/214 314/385/314 
f 228/348/228 315/386/315 249/387/249 
f 248/269/248 228/388/228 249/270/249 
f 313/384/313 24/24/24 21/246/21 
f 313/384/313 214/277/214 24/24/24 
f 44/44/44 43/43/43 94/389/94 
f 250/271/250 251/390/251 94/391/94 
f 316/392/316 305/373/305 240/254/240 
f 317/393/317 237/394/237 240/395/240 
f 82/396/82 225/238/225 226/237/226 
f 318/397/318 226/398/226 236/250/236 
f 77/399/77 319/400/319 320/401/320 
f 80/82/80 321/402/321 78/80/78 
f 293/342/293 145/148/145 75/343/75 
f 293/403/293 294/350/294 295/349/295 
f 64/64/64 155/158/155 322/404/322 
f 156/159/156 309/377/309 56/160/56 
f 323/405/323 280/325/280 289/406/289 
f 287/336/287 289/407/289 288/337/288 
f 324/408/324 145/409/145 293/410/293 
f 239/253/239 238/252/238 325/411/325 
f 79/81/79 326/412/326 80/82/80 
f 79/260/79 243/259/243 222/233/222 
f 5/5/5 151/154/151 112/115/112 
f 151/154/151 327/413/327 112/115/112 
f 40/414/40 42/415/42 155/416/155 
f 309/377/309 156/159/156 155/417/155 
f 1/418/1 74/74/74 153/419/153 
f 294/350/294 1/1/1 149/152/149 
f 33/33/33 192/198/192 21/420/21 
f 230/421/230 21/422/21 231/423/231 
f 288/351/288 99/424/99 101/352/101 
f 289/338/289 283/328/283 288/351/288 
f 272/425/272 273/426/273 133/427/133 
f 78/428/78 132/429/132 133/430/133 
f 146/265/146 328/431/328 246/263/246 
f 146/265/146 325/432/325 328/431/328 
f 257/286/257 39/39/39 38/38/38 
f 329/433/329 102/104/102 39/39/39 
f 302/365/302 177/182/177 179/184/179 
f 90/92/90 302/365/302 179/184/179 
f 214/221/214 330/434/330 22/435/22 
f 22/22/22 330/436/330 23/23/23 
f 277/437/277 40/40/40 155/438/155 
f 39/39/39 103/105/103 301/359/301 
f 315/439/315 27/440/27 26/441/26 
f 27/347/27 315/386/315 228/348/228 
f 130/133/130 160/165/160 158/163/158 
f 331/442/331 260/443/260 261/294/261 
f 190/196/190 32/32/32 332/444/332 
f 117/445/117 332/446/332 161/369/161 
f 203/346/203 6/447/6 27/347/27 
f 6/6/6 203/448/203 202/209/202 
f 105/108/105 257/449/257 51/287/51 
f 102/107/102 329/450/329 105/108/105 
f 73/73/73 76/451/76 253/452/253 
f 73/453/73 254/275/254 246/263/246 
f 15/15/15 14/14/14 266/304/266 
f 196/454/196 209/314/209 268/316/268 
f 28/28/28 27/27/27 6/455/6 
f 98/100/98 28/456/28 6/6/6 
f 65/289/65 333/457/333 59/59/59 
f 334/458/334 54/459/54 59/59/59 
f 292/341/292 215/222/215 291/340/291 
f 164/229/164 335/460/335 291/340/291 
f 328/461/328 325/411/325 238/252/238 
f 176/181/176 336/462/336 337/463/337 
f 259/292/259 251/464/251 169/174/169 
f 250/271/250 227/239/227 251/390/251 
f 310/378/310 338/465/338 56/160/56 
f 338/466/338 54/54/54 56/56/56 
f 16/16/16 85/87/85 284/467/284 
f 46/468/46 164/229/164 219/228/219 
f 339/469/339 273/470/273 272/310/272 
f 173/178/173 339/469/339 272/310/272 
f 317/471/317 176/181/176 337/463/337 
f 317/393/317 240/395/240 176/472/176 
f 13/13/13 258/290/258 14/14/14 
f 251/272/251 259/473/259 92/94/92 
f 181/474/181 66/66/66 63/63/63 
f 185/190/185 184/189/184 340/475/340 
f 19/19/19 279/322/279 127/130/127 
f 290/339/290 127/130/127 291/340/291 
f 125/128/125 166/476/166 126/129/126 
f 48/284/48 166/477/166 4/285/4 
f 105/108/105 193/199/193 104/106/104 
f 193/199/193 270/308/270 104/106/104 
f 245/262/245 73/73/73 246/478/246 
f 176/181/176 175/180/175 336/462/336 
f 5/5/5 4/4/4 125/479/125 
f 4/480/4 166/476/166 125/128/125 
f 120/481/120 210/482/210 190/483/190 
f 275/315/275 341/484/341 191/485/191 
f 63/486/63 307/375/307 185/190/185 
f 63/487/63 185/488/185 340/489/340 
f 50/50/50 76/451/76 73/73/73 
f 50/50/50 144/490/144 153/491/153 
f 124/127/124 114/492/114 122/125/122 
f 137/140/137 264/297/264 342/493/342 
f 277/319/277 15/15/15 212/219/212 
f 212/494/212 40/40/40 277/437/277 
f 80/82/80 77/79/77 320/495/320 
f 80/82/80 326/412/326 77/79/77 
f 184/496/184 173/497/173 172/498/172 
f 263/296/263 159/499/159 261/294/261 
f 342/500/342 124/127/124 137/501/137 
f 124/127/124 235/266/235 343/502/343 
f 161/166/161 87/89/87 109/503/109 
f 87/504/87 86/505/86 319/400/319 
f 159/499/159 263/296/263 182/187/182 
f 263/296/263 180/185/180 182/187/182 
f 40/40/40 301/506/301 103/507/103 
f 276/317/276 40/40/40 103/507/103 
f 2/2/2 144/147/144 154/508/154 
f 50/50/50 154/157/154 144/490/144 
f 124/127/124 344/509/344 114/492/114 
f 114/117/114 344/510/344 115/118/115 
f 66/66/66 260/298/260 224/301/224 
f 261/294/261 260/443/260 262/295/262 
f 110/113/110 109/112/109 345/511/345 
f 223/512/223 108/513/108 297/514/297 
f 44/515/44 94/96/94 93/95/93 
f 277/319/277 44/318/44 15/15/15 
f 108/513/108 110/516/110 345/517/345 
f 116/119/116 118/121/118 108/518/108 
f 184/189/184 183/188/183 173/519/173 
f 183/188/183 339/520/339 173/519/173 
f 316/521/316 240/522/240 237/251/237 
f 300/358/300 231/245/231 23/23/23 
f 8/8/8 36/36/36 25/25/25 
f 235/523/235 25/524/25 346/525/346 
f 67/67/67 66/66/66 265/302/265 
f 236/526/236 83/527/83 318/528/318 
f 131/134/131 31/529/31 170/175/170 
f 131/364/131 90/92/90 31/367/31 
f 145/530/145 325/432/325 146/265/146 
f 324/408/324 325/531/325 145/409/145 
f 347/532/347 87/89/87 319/533/319 
f 347/534/347 70/70/70 297/355/297 
f 3/3/3 2/2/2 69/69/69 
f 69/69/69 285/333/285 3/3/3 
f 194/200/194 51/287/51 348/535/348 
f 61/61/61 60/60/60 348/536/348 
f 224/301/224 260/298/260 96/300/96 
f 96/537/96 225/538/225 224/539/224 
f 194/540/194 348/536/348 60/60/60 
f 194/200/194 60/541/60 193/199/193 
f 78/542/78 321/543/321 132/544/132 
f 86/505/86 320/401/320 319/400/319 
f 221/231/221 38/38/38 37/37/37 
f 38/38/38 221/231/221 220/230/220 
f 333/457/333 322/545/322 334/458/334 
f 334/458/334 59/59/59 333/457/333 
f 8/8/8 171/546/171 206/213/206 
f 208/215/208 170/547/170 31/31/31 
f 349/548/349 269/307/269 275/549/275 
f 268/306/268 275/549/275 269/307/269 
f 143/146/143 248/268/248 177/182/177 
f 228/240/228 248/550/248 204/211/204 
f 57/57/57 54/459/54 193/202/193 
f 59/59/59 54/459/54 57/57/57 
f 10/10/10 164/551/164 163/552/163 
f 335/553/335 164/551/164 10/10/10 
f 315/554/315 26/555/26 101/103/101 
f 26/556/26 28/354/28 101/352/101 
f 275/557/275 191/558/191 349/559/349 
f 191/197/191 33/33/33 190/196/190 
f 66/66/66 262/560/262 260/298/260 
f 263/296/263 262/295/262 180/185/180 
f 250/561/250 43/43/43 168/173/168 
f 94/391/94 43/562/43 250/271/250 
f 291/340/291 350/563/350 292/341/292 
f 350/564/350 351/565/351 292/566/292 
f 139/288/139 140/143/140 65/65/65 
f 244/261/244 139/288/139 65/65/65 
f 190/483/190 352/567/352 120/481/120 
f 120/123/120 352/568/352 121/124/121 
f 209/314/209 341/484/341 275/315/275 
f 209/314/209 198/569/198 341/484/341 
f 314/570/314 214/277/214 312/383/312 
f 292/341/292 351/571/351 255/278/255 
f 58/58/58 244/572/244 65/289/65 
f 195/573/195 62/62/62 58/574/58 
f 213/575/213 119/576/119 121/577/121 
f 267/305/267 210/217/210 119/122/119 
f 150/225/150 115/118/115 30/578/30 
f 30/578/30 115/118/115 344/510/344 
f 127/130/127 290/339/290 19/19/19 
f 216/223/216 19/19/19 217/224/217 
f 236/250/236 226/398/226 168/173/168 
f 226/398/226 250/561/250 168/173/168 
f 16/16/16 284/467/284 219/228/219 
f 16/16/16 219/228/219 218/227/218 
f 50/50/50 153/491/153 76/451/76 
f 74/74/74 76/76/76 153/419/153 
f 162/167/162 177/579/177 302/580/302 
f 162/167/162 34/34/34 68/581/68 
f 18/18/18 84/86/84 16/16/16 
f 128/582/128 84/86/84 18/18/18 
f 102/583/102 276/584/276 103/585/103 
f 102/586/102 308/587/308 276/317/276 
f 211/218/211 116/588/116 108/111/108 
f 213/575/213 121/577/121 211/589/211 
f 53/53/53 353/590/353 61/61/61 
f 243/591/243 52/592/52 106/593/106 
f 295/349/295 324/594/324 293/403/293 
f 295/595/295 354/596/354 239/253/239 
f 41/41/41 310/597/310 42/42/42 
f 308/587/308 41/41/41 276/317/276 
f 61/598/61 353/599/353 243/591/243 
f 243/600/243 244/601/244 61/61/61 
f 352/568/352 116/119/116 121/124/121 
f 211/218/211 121/602/121 116/588/116 
f 343/502/343 137/501/137 124/127/124 
f 138/141/138 137/140/137 234/248/234 
f 42/603/42 310/378/310 309/377/309 
f 155/604/155 42/605/42 309/606/309 
f 336/607/336 175/608/175 245/609/245 
f 304/610/304 245/611/245 175/180/175 
f 32/32/32 34/34/34 161/166/161 
f 332/444/332 32/32/32 161/166/161 
f 323/405/323 289/406/289 151/612/151 
f 323/405/323 151/612/151 189/613/189 
f 51/614/51 220/230/220 52/232/52 
f 220/230/220 51/614/51 257/286/257 
f 320/615/320 86/616/86 132/617/132 
f 88/90/88 132/135/132 86/88/86 
f 299/357/299 48/48/48 9/9/9 
f 166/171/166 48/618/48 167/172/167 
f 89/91/89 229/619/229 186/620/186 
f 188/193/188 282/621/282 186/191/186 
f 34/34/34 232/244/232 68/581/68 
f 34/34/34 33/33/33 232/244/232 
f 312/383/312 313/384/313 256/622/256 
f 20/280/20 216/282/216 256/623/256 
f 233/247/233 25/25/25 241/624/241 
f 241/625/241 165/170/165 242/258/242 
f 152/155/152 89/91/89 189/195/189 
f 282/626/282 89/91/89 186/620/186 
f 21/21/21 20/20/20 313/627/313 
f 313/628/313 20/280/20 256/623/256 
f 354/629/354 300/358/300 316/630/316 
f 148/631/148 354/632/354 295/633/295 
f 182/634/182 184/496/184 172/498/172 
f 184/189/184 182/187/182 340/475/340 
f 80/82/80 320/495/320 321/402/321 
f 320/635/320 132/544/132 321/543/321 
f 280/325/280 282/327/282 188/636/188 
f 280/329/280 188/637/188 187/345/187 
f 232/244/232 33/33/33 230/242/230 
f 33/33/33 21/420/21 230/242/230 
f 2/2/2 154/508/154 141/638/141 
f 141/638/141 68/68/68 2/2/2 
f 91/93/91 248/268/248 229/619/229 
f 89/91/89 91/93/91 229/619/229 
f 222/233/222 72/639/72 71/640/71 
f 222/233/222 326/641/326 79/260/79 
f 354/596/354 316/521/316 237/251/237 
f 354/596/354 237/251/237 239/253/239 
f 249/387/249 100/330/100 187/345/187 
f 249/270/249 187/192/187 229/241/229 
f 273/426/273 78/542/78 133/427/133 
f 78/80/78 273/642/273 139/142/139 
f 68/643/68 141/144/141 177/182/177 
f 162/167/162 68/581/68 177/579/177 
f 122/644/122 5/645/5 123/646/123 
f 5/647/5 125/128/125 123/126/123 
f 35/648/35 264/297/264 136/139/136 
f 136/139/136 138/141/138 35/648/35 
f 305/373/305 304/610/304 174/179/174 
f 174/179/174 304/610/304 175/180/175 
f 227/239/227 169/649/169 251/390/251 
f 95/650/95 169/649/169 227/239/227 
f 35/648/35 138/141/138 36/651/36 
f 235/249/235 346/652/346 138/141/138 
f 44/44/44 155/653/155 45/45/45 
f 236/654/236 45/655/45 155/158/155 
f 53/53/53 61/61/61 348/536/348 
f 51/51/51 53/53/53 348/536/348 
f 245/656/245 246/263/246 336/657/336 
f 328/431/328 336/657/336 246/263/246 
f 23/23/23 305/658/305 316/630/316 
f 300/358/300 23/23/23 316/630/316 
f 170/175/170 206/659/206 171/176/171 
f 171/176/171 272/310/272 170/175/170 
f 262/295/262 66/660/66 180/185/180 
f 181/474/181 180/661/180 66/66/66 
f 289/406/289 327/662/327 151/612/151 
f 327/663/327 289/664/289 287/665/287 
f 304/610/304 305/373/305 11/666/11 
f 214/221/214 11/11/11 330/434/330 
f 72/72/72 223/667/223 297/355/297 
f 222/233/222 223/234/223 72/639/72 
f 135/138/135 128/131/128 279/323/279 
f 279/323/279 21/420/21 192/198/192 
f 330/434/330 11/11/11 305/668/305 
f 330/436/330 305/658/305 23/23/23 
f 30/669/30 342/493/342 264/297/264 
f 30/30/30 207/214/207 31/31/31 
f 225/238/225 95/650/95 227/239/227 
f 95/97/95 225/670/225 96/98/96 
f 204/211/204 143/671/143 205/212/205 
f 248/550/248 143/671/143 204/211/204 
f 156/159/156 55/161/55 334/458/334 
f 334/458/334 55/161/55 54/459/54 
f 44/318/44 93/672/93 15/15/15 
f 93/672/93 13/13/13 15/15/15 
f 30/673/30 264/674/264 207/675/207 
f 35/676/35 207/677/207 264/678/264 
f 241/679/241 247/680/247 165/681/165 
f 126/129/126 247/682/247 235/266/235 
f 157/683/157 8/8/8 7/7/7 
f 355/684/355 7/7/7 9/9/9 
f 126/129/126 165/685/165 247/682/247 
f 165/170/165 126/686/126 166/171/166 
f 7/7/7 355/684/355 157/683/157 
f 157/162/157 355/687/355 130/133/130 
f 259/688/259 13/689/13 92/690/92 
f 13/691/13 93/95/93 92/94/92 
f 238/252/238 317/692/317 337/693/337 
f 237/394/237 317/393/317 238/694/238 
f 40/40/40 212/494/212 301/506/301 
f 107/695/107 301/359/301 212/696/212 
f 159/164/159 158/163/158 261/697/261 
f 158/163/158 331/698/331 261/697/261 
f 291/340/291 17/17/17 218/227/218 
f 17/17/17 16/16/16 218/227/218 
f 62/62/62 195/573/195 60/60/60 
f 195/699/195 193/700/193 60/701/60 
f 200/702/200 160/165/160 201/703/201 
f 158/704/158 160/705/160 331/706/331 
f 242/258/242 167/172/167 299/707/299 
f 167/708/167 48/48/48 299/357/299 
f 356/709/356 172/177/172 157/162/157 
f 356/710/356 182/711/182 172/712/172 
f 278/713/278 150/321/150 29/29/29 
f 278/714/278 152/155/152 151/194/151 
f 197/291/197 196/715/196 14/14/14 
f 266/304/266 14/14/14 196/715/196 
f 152/155/152 278/714/278 29/366/29 
f 29/366/29 90/92/90 152/155/152 
f 107/695/107 37/37/37 301/359/301 
f 107/110/107 106/109/106 37/716/37 
f 290/339/290 215/222/215 217/224/217 
f 19/19/19 290/339/290 217/224/217 
f 267/305/267 119/122/119 213/717/213 
f 266/304/266 267/718/267 213/220/213 
f 159/164/159 356/709/356 157/162/157 
f 182/719/182 356/709/356 159/164/159 
f 328/431/328 337/720/337 336/657/336 
f 238/252/238 337/693/337 328/461/328 
f 222/721/222 71/722/71 326/723/326 
f 71/77/71 77/79/77 326/412/326 
f 181/474/181 63/63/63 340/724/340 
f 182/187/182 181/186/181 340/475/340 
f 36/651/36 138/141/138 346/652/346 
f 36/725/36 346/525/346 25/524/25 
f 351/726/351 314/570/314 312/383/312 
f 350/564/350 314/727/314 351/565/351 
f 297/355/297 345/728/345 347/534/347 
f 108/729/108 345/728/345 297/355/297 
f 183/188/183 311/379/311 339/520/339 
f 274/312/274 273/311/273 339/520/339 
f 134/137/134 135/138/135 192/198/192 
f 192/198/192 135/138/135 279/323/279 
f 308/587/308 310/597/310 41/41/41 
f 338/465/338 310/378/310 308/730/308 
f 274/312/274 311/379/311 306/374/306 
f 311/379/311 274/312/274 339/520/339 
f 201/703/201 160/165/160 129/132/129 
f 341/731/341 198/732/198 129/132/129 
f 322/404/322 155/158/155 156/733/156 
f 156/734/156 334/735/334 322/736/322 
f 233/247/233 241/624/241 242/737/242 
f 242/737/242 299/357/299 233/247/233 
f 353/599/353 52/592/52 243/591/243 
f 52/52/52 353/590/353 53/53/53 
f 75/75/75 357/738/357 76/76/76 
f 75/343/75 145/148/145 357/739/357 
f 349/548/349 210/217/210 269/307/269 
f 269/307/269 210/217/210 267/305/267 
f 282/626/282 281/740/281 189/195/189 
f 282/626/282 189/195/189 89/91/89 
f 37/37/37 106/741/106 221/231/221 
f 52/592/52 221/742/221 106/593/106 
f 147/743/147 253/744/253 252/745/252 
f 357/738/357 252/273/252 76/76/76 
f 338/746/338 308/376/308 271/309/271 
f 54/747/54 338/746/338 271/309/271 
f 98/100/98 296/748/296 28/456/28 
f 296/748/296 98/100/98 288/337/288 
f 208/215/208 35/35/35 206/213/206 
f 170/547/170 208/215/208 206/213/206 
f 357/738/357 147/749/147 252/273/252 
f 147/150/147 357/739/357 145/148/145 
f 39/39/39 257/286/257 329/433/329 
f 105/750/105 329/433/329 257/286/257 
f 46/46/46 284/331/284 47/47/47 
f 284/467/284 46/468/46 219/228/219 
f 62/62/62 61/61/61 244/601/244 
f 58/751/58 62/752/62 244/753/244 
f 202/209/202 142/754/142 154/157/154 
f 202/209/202 203/448/203 205/755/205 
f 286/335/286 3/3/3 285/333/285 
f 148/151/148 3/3/3 286/335/286 
f 202/209/202 205/755/205 142/754/142 
f 142/756/142 205/212/205 143/671/143 
f 286/335/286 300/358/300 148/151/148 
f 148/631/148 300/757/300 354/632/354 
f 137/140/137 343/758/343 234/248/234 
f 234/248/234 343/758/343 235/249/235 
f 259/292/259 298/759/298 258/760/258 
f 259/688/259 258/761/258 13/689/13 
f 315/554/315 101/103/101 100/102/100 
f 249/387/249 315/386/315 100/330/100 
f 318/762/318 82/396/82 226/237/226 
f 83/85/83 82/84/82 318/763/318 
f 162/167/162 302/580/302 88/90/88 
f 131/134/131 88/90/88 302/580/302 
f 98/100/98 112/115/112 287/336/287 
f 112/115/112 327/413/327 287/336/287 
f 111/368/111 117/445/117 161/369/161 
f 117/120/117 111/764/111 110/765/110 
f 333/766/333 65/65/65 64/64/64 
f 333/767/333 64/768/64 322/769/322 
f 47/47/47 355/684/355 9/9/9 
f 355/770/355 47/382/47 130/381/130 
f 109/503/109 87/89/87 347/532/347 
f 347/534/347 345/728/345 109/771/109 
f 140/772/140 139/313/139 306/374/306 
f 63/486/63 140/772/140 307/375/307 
f 163/552/163 4/4/4 49/49/49 
f 163/552/163 49/49/49 10/10/10 
f 70/773/70 319/400/319 77/399/77 
f 319/774/319 70/70/70 347/534/347 
f 97/99/97 96/98/96 298/759/298 
f 259/292/259 97/99/97 298/759/298 
f 341/731/341 134/137/134 191/197/191 
f 129/132/129 134/137/134 341/731/341 
f 122/775/122 114/117/114 113/116/113 
f 122/644/122 113/776/113 5/645/5 
f 190/777/190 349/548/349 191/778/191 
f 210/217/210 349/548/349 190/777/190 
f 270/308/270 193/199/193 54/747/54 
f 270/308/270 54/747/54 271/309/271 
f 1/779/1 294/780/294 74/781/74 
f 294/780/294 75/782/75 74/781/74 
f 352/568/352 303/371/303 116/119/116 
f 303/371/303 332/783/332 117/120/117 
f 281/326/281 280/325/280 323/405/323 
f 281/740/281 323/784/323 189/195/189 
f 255/785/255 351/726/351 312/383/312 
f 256/622/256 255/785/255 312/383/312 
f 140/772/140 306/374/306 307/375/307 
f 306/374/306 311/379/311 307/375/307 
f 253/452/253 254/786/254 73/73/73 
f 253/787/253 147/264/147 254/275/254 
f 352/567/352 190/483/190 332/788/332 
f 303/371/303 352/568/352 332/783/332 
f 342/500/342 344/509/344 124/127/124 
f 342/789/342 30/578/30 344/510/344 
f 325/411/325 324/790/324 239/253/239 
f 295/349/295 239/791/239 324/594/324 
f 291/792/291 335/553/335 12/12/12 
f 335/553/335 10/10/10 12/12/12 
f 68/581/68 232/244/232 285/793/285 
f 285/333/285 232/334/232 286/335/286 
f 283/328/283 99/424/99 288/351/288 
f 283/328/283 100/330/100 99/424/99 
f 331/698/331 160/165/160 200/702/200 
f 260/293/260 331/794/331 200/207/200 
f 83/795/83 265/302/265 81/796/81 
f 83/795/83 67/67/67 265/302/265 
f 266/304/266 268/797/268 267/718/267 
f 266/798/266 196/454/196 268/316/268 
f 81/83/81 265/799/265 224/235/224 
f 224/235/224 82/84/82 81/83/81 
f 350/800/350 291/792/291 12/12/12 
f 350/800/350 12/12/12 314/385/314 
f 236/526/236 67/801/67 83/527/83 
f 236/654/236 155/158/155 67/67/67 
f 178/183/178 90/92/90 179/184/179 
f 90/92/90 178/183/178 91/93/91 
f 201/703/201 129/132/129 198/732/198 
f 197/204/197 201/208/201 198/205/198 
f 110/765/110 118/121/118 117/120/117 
f 108/518/108 118/121/118 110/765/110 
f 199/206/199 201/208/201 197/204/197 
f 298/356/298 199/299/199 197/291/197 
# 0 polygons - 710 triangles

